M48
;Layer_Color=9474304
;FILE_FORMAT=2:5
INCH,LZ
;TYPE=PLATED
T1F00S00C0.02800
T2F00S00C0.03543
T3F00S00C0.03898
T4F00S00C0.04000
T5F00S00C0.04331
T6F00S00C0.06299
T7F00S00C0.08600
T8F00S00C0.10236
T9F00S00C0.16142
%
T01
X0230709Y0174016
X0227559Y0207874
X0215354Y0196063
X0248425
X0262992Y0182283
X0270866Y0162205
X0286221Y0372047
X0407087Y033189
T02
X0234508Y0387582
X0277165Y0361024
X0328445Y039065
X0365354Y0375787
T03
X0457087Y0224803
X0464961
Y0232677
Y0240551
Y0248425
Y0256299
Y0264173
Y0272047
Y0279921
Y0287795
Y0295669
Y0303543
Y0311417
X0457087
Y0303543
Y0295669
Y0287795
Y0279921
Y0272047
Y0264173
Y0256299
Y0248425
Y0240551
Y0232677
X0220866
Y0240551
X0212992
Y0232677
Y0224803
X0220866
Y0248425
Y0256299
X0212992
Y0248425
Y0264173
Y0272047
Y0279921
Y0287795
Y0295669
Y0303543
Y0311417
X0220866
Y0303543
Y0295669
Y0287795
Y0279921
Y0272047
Y0264173
Y0319291
Y0327165
X0212992
Y0319291
Y0335039
Y0342913
Y0350787
Y0358661
Y0366535
Y037441
X0220866
Y0366535
Y0358661
Y0350787
Y0342913
Y0335039
X0457087
X0464961
Y0327165
Y0319291
X0457087
Y0327165
Y0342913
Y0350787
X0464961
Y0342913
Y0358661
Y0366535
Y037441
X0457087
Y0366535
Y0358661
T04
X0322835Y0228346
Y0238347
Y0248346
Y0258347
Y0268347
X0323496Y0291339
Y0301339
Y0311339
X0429134Y0240158
X0281496Y0291339
X0323496Y0321339
Y0331339
T05
X0238858Y0440945
X0248858
X0275827Y0440945
X0285827
X0313228
X0323228
X035122
X0361221
X0388622
X0398622
X0426024
X0436024
T06
X0289961Y0152874
X034311
X0369488
X0422638
T07
X0319335Y0214347
X0384134Y0220158
X0403834
X0424134
X0256335Y0267347
X0267496Y0295339
X0319496Y0347339
X0384134Y0390158
X0403834
X0424134
T08
X0330709Y0175197
X038189
X0410236
X0302362
T09
X0472441Y0165354
X0204724
Y0433071
X0472441
M30
