<?xml version="1.0" encoding="utf-8"?>
<!DOCTYPE eagle SYSTEM "eagle.dtd">
<eagle version="9.0.1">
<drawing>
<settings>
<setting alwaysvectorfont="no"/>
<setting verticaltext="up"/>
</settings>
<grid distance="0.1" unitdist="inch" unit="inch" style="lines" multiple="1" display="no" altdistance="0.01" altunitdist="inch" altunit="inch"/>
<layers>
<layer number="1" name="Top" color="4" fill="1" visible="yes" active="yes"/>
<layer number="2" name="Route2" color="1" fill="3" visible="no" active="yes"/>
<layer number="3" name="Route3" color="4" fill="3" visible="no" active="yes"/>
<layer number="4" name="Route4" color="1" fill="4" visible="no" active="yes"/>
<layer number="5" name="Route5" color="4" fill="4" visible="no" active="yes"/>
<layer number="6" name="Route6" color="1" fill="8" visible="no" active="yes"/>
<layer number="7" name="Route7" color="4" fill="8" visible="no" active="yes"/>
<layer number="8" name="Route8" color="1" fill="2" visible="no" active="yes"/>
<layer number="9" name="Route9" color="4" fill="2" visible="no" active="yes"/>
<layer number="10" name="Route10" color="1" fill="7" visible="no" active="yes"/>
<layer number="11" name="Route11" color="4" fill="7" visible="no" active="yes"/>
<layer number="12" name="Route12" color="1" fill="5" visible="no" active="yes"/>
<layer number="13" name="Route13" color="4" fill="5" visible="no" active="yes"/>
<layer number="14" name="Route14" color="1" fill="6" visible="no" active="yes"/>
<layer number="15" name="Route15" color="4" fill="6" visible="no" active="yes"/>
<layer number="16" name="Bottom" color="1" fill="1" visible="yes" active="yes"/>
<layer number="17" name="Pads" color="2" fill="1" visible="yes" active="yes"/>
<layer number="18" name="Vias" color="2" fill="1" visible="yes" active="yes"/>
<layer number="19" name="Unrouted" color="6" fill="1" visible="yes" active="yes"/>
<layer number="20" name="Dimension" color="24" fill="1" visible="yes" active="yes"/>
<layer number="21" name="tPlace" color="7" fill="1" visible="yes" active="yes"/>
<layer number="22" name="bPlace" color="7" fill="1" visible="yes" active="yes"/>
<layer number="23" name="tOrigins" color="15" fill="1" visible="yes" active="yes"/>
<layer number="24" name="bOrigins" color="15" fill="1" visible="yes" active="yes"/>
<layer number="25" name="tNames" color="7" fill="1" visible="yes" active="yes"/>
<layer number="26" name="bNames" color="7" fill="1" visible="yes" active="yes"/>
<layer number="27" name="tValues" color="7" fill="1" visible="yes" active="yes"/>
<layer number="28" name="bValues" color="7" fill="1" visible="yes" active="yes"/>
<layer number="29" name="tStop" color="7" fill="3" visible="no" active="yes"/>
<layer number="30" name="bStop" color="7" fill="6" visible="no" active="yes"/>
<layer number="31" name="tCream" color="7" fill="4" visible="no" active="yes"/>
<layer number="32" name="bCream" color="7" fill="5" visible="no" active="yes"/>
<layer number="33" name="tFinish" color="6" fill="3" visible="no" active="yes"/>
<layer number="34" name="bFinish" color="6" fill="6" visible="no" active="yes"/>
<layer number="35" name="tGlue" color="7" fill="4" visible="no" active="yes"/>
<layer number="36" name="bGlue" color="7" fill="5" visible="no" active="yes"/>
<layer number="37" name="tTest" color="7" fill="1" visible="no" active="yes"/>
<layer number="38" name="bTest" color="7" fill="1" visible="no" active="yes"/>
<layer number="39" name="tKeepout" color="4" fill="11" visible="yes" active="yes"/>
<layer number="40" name="bKeepout" color="1" fill="11" visible="yes" active="yes"/>
<layer number="41" name="tRestrict" color="4" fill="10" visible="yes" active="yes"/>
<layer number="42" name="bRestrict" color="1" fill="10" visible="yes" active="yes"/>
<layer number="43" name="vRestrict" color="2" fill="10" visible="yes" active="yes"/>
<layer number="44" name="Drills" color="7" fill="1" visible="no" active="yes"/>
<layer number="45" name="Holes" color="7" fill="1" visible="no" active="yes"/>
<layer number="46" name="Milling" color="3" fill="1" visible="no" active="yes"/>
<layer number="47" name="Measures" color="7" fill="1" visible="no" active="yes"/>
<layer number="48" name="Document" color="7" fill="1" visible="yes" active="yes"/>
<layer number="49" name="Reference" color="7" fill="1" visible="yes" active="yes"/>
<layer number="50" name="dxf" color="7" fill="1" visible="no" active="no"/>
<layer number="51" name="tDocu" color="7" fill="1" visible="yes" active="yes"/>
<layer number="52" name="bDocu" color="7" fill="1" visible="yes" active="yes"/>
<layer number="53" name="tGND_GNDA" color="7" fill="9" visible="no" active="no"/>
<layer number="54" name="bGND_GNDA" color="1" fill="9" visible="no" active="no"/>
<layer number="56" name="wert" color="7" fill="1" visible="no" active="no"/>
<layer number="57" name="tCAD" color="7" fill="1" visible="no" active="no"/>
<layer number="59" name="tCarbon" color="7" fill="1" visible="no" active="no"/>
<layer number="60" name="bCarbon" color="7" fill="1" visible="no" active="no"/>
<layer number="88" name="SimResults" color="9" fill="1" visible="yes" active="yes"/>
<layer number="89" name="SimProbes" color="9" fill="1" visible="yes" active="yes"/>
<layer number="90" name="Modules" color="5" fill="1" visible="yes" active="yes"/>
<layer number="91" name="Nets" color="2" fill="1" visible="yes" active="yes"/>
<layer number="92" name="Busses" color="1" fill="1" visible="yes" active="yes"/>
<layer number="93" name="Pins" color="2" fill="1" visible="yes" active="yes"/>
<layer number="94" name="Symbols" color="4" fill="1" visible="yes" active="yes"/>
<layer number="95" name="Names" color="7" fill="1" visible="yes" active="yes"/>
<layer number="96" name="Values" color="7" fill="1" visible="yes" active="yes"/>
<layer number="97" name="Info" color="7" fill="1" visible="yes" active="yes"/>
<layer number="98" name="Guide" color="6" fill="1" visible="yes" active="yes"/>
<layer number="99" name="SpiceOrder" color="7" fill="1" visible="no" active="no"/>
<layer number="100" name="Muster" color="7" fill="1" visible="no" active="no"/>
<layer number="101" name="Patch_Top" color="12" fill="4" visible="no" active="yes"/>
<layer number="102" name="Vscore" color="7" fill="1" visible="no" active="yes"/>
<layer number="103" name="fp3" color="7" fill="1" visible="no" active="yes"/>
<layer number="104" name="Name" color="7" fill="1" visible="no" active="yes"/>
<layer number="105" name="Beschreib" color="9" fill="1" visible="no" active="yes"/>
<layer number="106" name="BGA-Top" color="4" fill="1" visible="no" active="yes"/>
<layer number="107" name="BD-Top" color="5" fill="1" visible="no" active="yes"/>
<layer number="108" name="fp8" color="7" fill="1" visible="no" active="yes"/>
<layer number="109" name="fp9" color="7" fill="1" visible="no" active="yes"/>
<layer number="110" name="fp0" color="7" fill="1" visible="no" active="yes"/>
<layer number="111" name="LPC17xx" color="7" fill="1" visible="no" active="yes"/>
<layer number="112" name="tSilk" color="7" fill="1" visible="no" active="yes"/>
<layer number="113" name="ReferenceLS" color="7" fill="1" visible="no" active="no"/>
<layer number="116" name="Patch_BOT" color="9" fill="4" visible="no" active="yes"/>
<layer number="118" name="Rect_Pads" color="7" fill="1" visible="no" active="no"/>
<layer number="121" name="_tsilk" color="7" fill="1" visible="no" active="yes"/>
<layer number="122" name="_bsilk" color="7" fill="1" visible="no" active="yes"/>
<layer number="123" name="tTestmark" color="7" fill="1" visible="no" active="yes"/>
<layer number="124" name="bTestmark" color="7" fill="1" visible="no" active="yes"/>
<layer number="125" name="_tNames" color="7" fill="1" visible="no" active="yes"/>
<layer number="126" name="_bNames" color="7" fill="1" visible="no" active="yes"/>
<layer number="127" name="_tValues" color="7" fill="1" visible="no" active="yes"/>
<layer number="128" name="_bValues" color="7" fill="1" visible="no" active="yes"/>
<layer number="129" name="Mask" color="7" fill="1" visible="yes" active="yes"/>
<layer number="131" name="tAdjust" color="7" fill="1" visible="no" active="yes"/>
<layer number="132" name="bAdjust" color="7" fill="1" visible="no" active="yes"/>
<layer number="144" name="Drill_legend" color="7" fill="1" visible="no" active="yes"/>
<layer number="150" name="Notes" color="7" fill="1" visible="no" active="yes"/>
<layer number="151" name="HeatSink" color="7" fill="1" visible="no" active="yes"/>
<layer number="152" name="_bDocu" color="7" fill="1" visible="no" active="yes"/>
<layer number="153" name="FabDoc1" color="6" fill="1" visible="no" active="no"/>
<layer number="154" name="FabDoc2" color="2" fill="1" visible="no" active="no"/>
<layer number="155" name="FabDoc3" color="7" fill="15" visible="no" active="no"/>
<layer number="199" name="Contour" color="7" fill="1" visible="no" active="yes"/>
<layer number="200" name="200bmp" color="1" fill="10" visible="no" active="yes"/>
<layer number="201" name="201bmp" color="2" fill="1" visible="no" active="no"/>
<layer number="202" name="202bmp" color="3" fill="1" visible="no" active="no"/>
<layer number="203" name="203bmp" color="4" fill="10" visible="no" active="yes"/>
<layer number="204" name="204bmp" color="5" fill="10" visible="no" active="yes"/>
<layer number="205" name="205bmp" color="6" fill="10" visible="no" active="yes"/>
<layer number="206" name="206bmp" color="7" fill="10" visible="no" active="yes"/>
<layer number="207" name="207bmp" color="8" fill="10" visible="no" active="yes"/>
<layer number="208" name="208bmp" color="9" fill="10" visible="no" active="yes"/>
<layer number="209" name="209bmp" color="7" fill="1" visible="no" active="yes"/>
<layer number="210" name="210bmp" color="7" fill="1" visible="no" active="yes"/>
<layer number="211" name="211bmp" color="7" fill="1" visible="no" active="yes"/>
<layer number="212" name="212bmp" color="7" fill="1" visible="no" active="yes"/>
<layer number="213" name="213bmp" color="7" fill="1" visible="no" active="yes"/>
<layer number="214" name="214bmp" color="7" fill="1" visible="no" active="yes"/>
<layer number="215" name="215bmp" color="7" fill="1" visible="no" active="yes"/>
<layer number="216" name="216bmp" color="7" fill="1" visible="no" active="yes"/>
<layer number="217" name="217bmp" color="18" fill="1" visible="no" active="no"/>
<layer number="218" name="218bmp" color="19" fill="1" visible="no" active="no"/>
<layer number="219" name="219bmp" color="20" fill="1" visible="no" active="no"/>
<layer number="220" name="220bmp" color="21" fill="1" visible="no" active="no"/>
<layer number="221" name="221bmp" color="22" fill="1" visible="no" active="no"/>
<layer number="222" name="222bmp" color="23" fill="1" visible="no" active="no"/>
<layer number="223" name="223bmp" color="24" fill="1" visible="no" active="no"/>
<layer number="224" name="224bmp" color="25" fill="1" visible="no" active="no"/>
<layer number="225" name="225bmp" color="7" fill="1" visible="yes" active="yes"/>
<layer number="226" name="226bmp" color="7" fill="1" visible="yes" active="yes"/>
<layer number="227" name="227bmp" color="7" fill="1" visible="yes" active="yes"/>
<layer number="228" name="228bmp" color="7" fill="1" visible="yes" active="yes"/>
<layer number="229" name="229bmp" color="7" fill="1" visible="yes" active="yes"/>
<layer number="230" name="230bmp" color="7" fill="1" visible="yes" active="yes"/>
<layer number="231" name="Eagle3D_PG1" color="7" fill="1" visible="no" active="no"/>
<layer number="232" name="Eagle3D_PG2" color="7" fill="1" visible="no" active="no"/>
<layer number="233" name="Eagle3D_PG3" color="7" fill="1" visible="no" active="no"/>
<layer number="248" name="Housing" color="7" fill="1" visible="no" active="yes"/>
<layer number="249" name="Edge" color="7" fill="1" visible="no" active="yes"/>
<layer number="250" name="Descript" color="7" fill="1" visible="no" active="no"/>
<layer number="251" name="SMDround" color="7" fill="1" visible="no" active="no"/>
<layer number="254" name="cooling" color="7" fill="1" visible="no" active="yes"/>
<layer number="255" name="routoute" color="7" fill="1" visible="yes" active="yes"/>
</layers>
<library>
<packages>
<package name="PG-SSOP14">
<wire x1="-1.95" y1="2.45" x2="1.95" y2="2.45" width="0.127" layer="21"/>
<wire x1="1.95" y1="2.45" x2="1.95" y2="-2.45" width="0.127" layer="21"/>
<wire x1="1.95" y1="-2.45" x2="-1.95" y2="-2.45" width="0.127" layer="21"/>
<wire x1="-1.95" y1="-2.45" x2="-1.95" y2="2.45" width="0.127" layer="21"/>
<smd name="GND" x="0" y="0" dx="2.65" dy="3" layer="1"/>
<smd name="4" x="-2.845" y="0" dx="1.31" dy="0.45" layer="1"/>
<smd name="3" x="-2.845" y="0.65" dx="1.31" dy="0.45" layer="1"/>
<smd name="2" x="-2.845" y="1.3" dx="1.31" dy="0.45" layer="1"/>
<smd name="1" x="-2.845" y="1.95" dx="1.31" dy="0.45" layer="1"/>
<smd name="5" x="-2.845" y="-0.65" dx="1.31" dy="0.45" layer="1"/>
<smd name="6" x="-2.845" y="-1.3" dx="1.31" dy="0.45" layer="1"/>
<smd name="7" x="-2.845" y="-1.95" dx="1.31" dy="0.45" layer="1"/>
<smd name="8" x="2.845" y="-1.95" dx="1.31" dy="0.45" layer="1"/>
<smd name="9" x="2.845" y="-1.3" dx="1.31" dy="0.45" layer="1"/>
<smd name="10" x="2.845" y="-0.65" dx="1.31" dy="0.45" layer="1"/>
<smd name="11" x="2.845" y="0" dx="1.31" dy="0.45" layer="1"/>
<smd name="12" x="2.845" y="0.65" dx="1.31" dy="0.45" layer="1"/>
<smd name="13" x="2.845" y="1.3" dx="1.31" dy="0.45" layer="1"/>
<smd name="14" x="2.845" y="1.95" dx="1.31" dy="0.45" layer="1"/>
<rectangle x1="-3.125" y1="1.825" x2="-1.975" y2="2.075" layer="21"/>
<rectangle x1="-3.125" y1="1.175" x2="-1.975" y2="1.425" layer="21"/>
<rectangle x1="-3.125" y1="0.525" x2="-1.975" y2="0.775" layer="21"/>
<rectangle x1="-3.125" y1="-0.125" x2="-1.975" y2="0.125" layer="21"/>
<rectangle x1="-3.125" y1="-0.775" x2="-1.975" y2="-0.525" layer="21"/>
<rectangle x1="-3.125" y1="-1.425" x2="-1.975" y2="-1.175" layer="21"/>
<rectangle x1="1.975" y1="1.825" x2="3.125" y2="2.075" layer="21" rot="R180"/>
<rectangle x1="1.975" y1="1.175" x2="3.125" y2="1.425" layer="21" rot="R180"/>
<rectangle x1="1.975" y1="0.525" x2="3.125" y2="0.775" layer="21" rot="R180"/>
<rectangle x1="1.975" y1="-0.125" x2="3.125" y2="0.125" layer="21" rot="R180"/>
<rectangle x1="1.975" y1="-0.775" x2="3.125" y2="-0.525" layer="21" rot="R180"/>
<rectangle x1="1.975" y1="-1.425" x2="3.125" y2="-1.175" layer="21" rot="R180"/>
<rectangle x1="1.975" y1="-2.075" x2="3.125" y2="-1.825" layer="21" rot="R180"/>
</package>
<package name="SOP65P600X170-14N" urn="urn:adsk.eagle:footprint:15127103/1">
<description>14-SOP, 0.65 mm pitch, 6.00 mm span, 4.90 X 3.10 X 1.70 mm body
&lt;p&gt;14-pin SOP package with 0.65 mm pitch, 6.00 mm span with body size 4.90 X 3.10 X 1.70 mm&lt;/p&gt;</description>
<circle x="-2.478" y="2.6649" radius="0.25" width="0" layer="21"/>
<wire x1="-1.55" y1="2.4149" x2="-1.55" y2="2.45" width="0.12" layer="21"/>
<wire x1="-1.55" y1="2.45" x2="1.55" y2="2.45" width="0.12" layer="21"/>
<wire x1="1.55" y1="2.45" x2="1.55" y2="2.4149" width="0.12" layer="21"/>
<wire x1="-1.55" y1="-2.4149" x2="-1.55" y2="-2.45" width="0.12" layer="21"/>
<wire x1="-1.55" y1="-2.45" x2="1.55" y2="-2.45" width="0.12" layer="21"/>
<wire x1="1.55" y1="-2.45" x2="1.55" y2="-2.4149" width="0.12" layer="21"/>
<wire x1="1.55" y1="-2.45" x2="-1.55" y2="-2.45" width="0.12" layer="51"/>
<wire x1="-1.55" y1="-2.45" x2="-1.55" y2="2.45" width="0.12" layer="51"/>
<wire x1="-1.55" y1="2.45" x2="1.55" y2="2.45" width="0.12" layer="51"/>
<wire x1="1.55" y1="2.45" x2="1.55" y2="-2.45" width="0.12" layer="51"/>
<smd name="1" x="-2.7" y="1.95" dx="1.4118" dy="0.4218" layer="1"/>
<smd name="2" x="-2.7" y="1.3" dx="1.4118" dy="0.4218" layer="1"/>
<smd name="3" x="-2.7" y="0.65" dx="1.4118" dy="0.4218" layer="1"/>
<smd name="4" x="-2.7" y="0" dx="1.4118" dy="0.4218" layer="1"/>
<smd name="5" x="-2.7" y="-0.65" dx="1.4118" dy="0.4218" layer="1"/>
<smd name="6" x="-2.7" y="-1.3" dx="1.4118" dy="0.4218" layer="1"/>
<smd name="7" x="-2.7" y="-1.95" dx="1.4118" dy="0.4218" layer="1"/>
<smd name="8" x="2.7" y="-1.95" dx="1.4118" dy="0.4218" layer="1"/>
<smd name="9" x="2.7" y="-1.3" dx="1.4118" dy="0.4218" layer="1"/>
<smd name="10" x="2.7" y="-0.65" dx="1.4118" dy="0.4218" layer="1"/>
<smd name="11" x="2.7" y="0" dx="1.4118" dy="0.4218" layer="1"/>
<smd name="12" x="2.7" y="0.65" dx="1.4118" dy="0.4218" layer="1"/>
<smd name="13" x="2.7" y="1.3" dx="1.4118" dy="0.4218" layer="1"/>
<smd name="14" x="2.7" y="1.95" dx="1.4118" dy="0.4218" layer="1"/>
<text x="0" y="3.5499" size="1.27" layer="25" align="bottom-center">&gt;NAME</text>
<text x="0" y="-3.085" size="1.27" layer="27" align="top-center">&gt;VALUE</text>
</package>
<package name="INDUCTOR_12.5X12.5">
<wire x1="-5.25" y1="-6.25" x2="-5.08" y2="-6.25" width="0.127" layer="21"/>
<wire x1="-5.08" y1="-6.25" x2="5.08" y2="-6.25" width="0.127" layer="21"/>
<wire x1="5.08" y1="-6.25" x2="5.25" y2="-6.25" width="0.127" layer="21"/>
<wire x1="-5.25" y1="6.25" x2="-5.08" y2="6.25" width="0.127" layer="21"/>
<wire x1="-5.08" y1="6.25" x2="5.08" y2="6.25" width="0.127" layer="21"/>
<wire x1="5.08" y1="6.25" x2="5.25" y2="6.25" width="0.127" layer="21"/>
<wire x1="-6.25" y1="-5.25" x2="-6.25" y2="-5.08" width="0.127" layer="21"/>
<wire x1="-6.25" y1="-5.08" x2="-6.25" y2="5.08" width="0.127" layer="21"/>
<wire x1="-6.25" y1="5.08" x2="-6.25" y2="5.25" width="0.127" layer="21"/>
<wire x1="6.25" y1="-5.25" x2="6.25" y2="-5.08" width="0.127" layer="21"/>
<wire x1="6.25" y1="-5.08" x2="6.25" y2="5.08" width="0.127" layer="21"/>
<wire x1="6.25" y1="5.08" x2="6.25" y2="5.25" width="0.127" layer="21"/>
<wire x1="-5.08" y1="6.25" x2="-6.25" y2="5.08" width="0.127" layer="21" curve="90"/>
<wire x1="-6.25" y1="-5.08" x2="-5.08" y2="-6.25" width="0.127" layer="21" curve="90"/>
<wire x1="5.08" y1="-6.25" x2="6.25" y2="-5.08" width="0.127" layer="21" curve="90"/>
<wire x1="6.25" y1="5.08" x2="5.08" y2="6.25" width="0.127" layer="21" curve="90"/>
<smd name="P$1" x="0" y="5.35" dx="5.4" dy="3.9" layer="1"/>
<smd name="P$2" x="0" y="-5.35" dx="5.4" dy="3.9" layer="1"/>
</package>
<package name="PG-TO252-3-11">
<description>&lt;b&gt;SMALL OUTLINE TRANSISTOR&lt;/b&gt;&lt;p&gt;
TS-003</description>
<wire x1="3.2766" y1="3.8354" x2="3.277" y2="-2.159" width="0.2032" layer="21"/>
<wire x1="3.277" y1="-2.159" x2="-3.277" y2="-2.159" width="0.2032" layer="21"/>
<wire x1="-3.277" y1="-2.159" x2="-3.2766" y2="3.8354" width="0.2032" layer="21"/>
<wire x1="-3.277" y1="3.835" x2="3.2774" y2="3.8346" width="0.2032" layer="51"/>
<wire x1="-3.973" y1="5.983" x2="3.973" y2="5.983" width="0.0508" layer="39"/>
<wire x1="3.973" y1="-5.983" x2="-3.973" y2="-5.983" width="0.0508" layer="39"/>
<wire x1="-3.973" y1="-5.983" x2="-3.973" y2="5.983" width="0.0508" layer="39"/>
<wire x1="3.973" y1="5.983" x2="3.973" y2="-5.983" width="0.0508" layer="39"/>
<wire x1="-2.5654" y1="3.937" x2="-2.5654" y2="4.6482" width="0.2032" layer="51"/>
<wire x1="-2.5654" y1="4.6482" x2="-2.1082" y2="5.1054" width="0.2032" layer="51"/>
<wire x1="-2.1082" y1="5.1054" x2="2.1082" y2="5.1054" width="0.2032" layer="51"/>
<wire x1="2.1082" y1="5.1054" x2="2.5654" y2="4.6482" width="0.2032" layer="51"/>
<wire x1="2.5654" y1="4.6482" x2="2.5654" y2="3.937" width="0.2032" layer="51"/>
<wire x1="2.5654" y1="3.937" x2="-2.5654" y2="3.937" width="0.2032" layer="51"/>
<smd name="2" x="0" y="2.5" dx="5.4" dy="6.2" layer="1"/>
<smd name="1" x="-2.28" y="-4.8" dx="1" dy="1.6" layer="1"/>
<smd name="3" x="2.28" y="-4.8" dx="1" dy="1.6" layer="1"/>
<text x="-3.81" y="-2.54" size="1.27" layer="25" rot="R90">&gt;NAME</text>
<text x="5.08" y="-2.54" size="1.27" layer="27" rot="R90">&gt;VALUE</text>
<rectangle x1="-2.7178" y1="-5.1562" x2="-1.8542" y2="-2.2606" layer="51"/>
<rectangle x1="1.8542" y1="-5.1562" x2="2.7178" y2="-2.2606" layer="51"/>
<rectangle x1="-0.4318" y1="-3.0226" x2="0.4318" y2="-2.2606" layer="21"/>
<polygon width="0.1998" layer="51">
<vertex x="-2.5654" y="3.937"/>
<vertex x="-2.5654" y="4.6482"/>
<vertex x="-2.1082" y="5.1054"/>
<vertex x="2.1082" y="5.1054"/>
<vertex x="2.5654" y="4.6482"/>
<vertex x="2.5654" y="3.937"/>
</polygon>
</package>
<package name="TO-277A">
<smd name="1" x="0" y="2.5652" dx="4.8" dy="5.2" layer="1"/>
<smd name="2" x="-1.04" y="-1.445" dx="1.4" dy="1.27" layer="1"/>
<smd name="3" x="1.04" y="-1.445" dx="1.4" dy="1.27" layer="1"/>
<wire x1="-2" y1="4.6" x2="2" y2="4.6" width="0.127" layer="21"/>
<wire x1="2" y1="4.6" x2="2" y2="1.05" width="0.127" layer="21"/>
<wire x1="2" y1="0.3" x2="2" y2="-1.5" width="0.127" layer="21"/>
<wire x1="2" y1="-1.5" x2="-2" y2="-1.5" width="0.127" layer="21"/>
<wire x1="-2" y1="-1.5" x2="-2" y2="0.3" width="0.127" layer="21"/>
<polygon width="0.127" layer="21">
<vertex x="-1" y="4.8"/>
<vertex x="1" y="4.8"/>
<vertex x="1" y="4.6"/>
<vertex x="-1" y="4.6"/>
</polygon>
<polygon width="0.127" layer="21">
<vertex x="-1.665" y="-1.5"/>
<vertex x="-1.665" y="-1.7"/>
<vertex x="-0.465" y="-1.7"/>
<vertex x="-0.465" y="-1.5"/>
</polygon>
<polygon width="0.127" layer="21">
<vertex x="0.465" y="-1.5"/>
<vertex x="0.465" y="-1.7"/>
<vertex x="1.665" y="-1.7"/>
<vertex x="1.665" y="-1.5"/>
</polygon>
<wire x1="-2" y1="1.05" x2="-2" y2="4.6" width="0.127" layer="21"/>
<wire x1="-2" y1="0.3" x2="-2.1" y2="0.3" width="0.127" layer="21"/>
<wire x1="-2.1" y1="0.3" x2="-2.1" y2="1.05" width="0.127" layer="21"/>
<wire x1="-2.1" y1="1.05" x2="-2" y2="1.05" width="0.127" layer="21"/>
<wire x1="-2" y1="1.05" x2="-2" y2="0.3" width="0.127" layer="21"/>
<wire x1="2" y1="1.05" x2="2.1" y2="1.05" width="0.127" layer="21"/>
<wire x1="2.1" y1="1.05" x2="2.1" y2="0.3" width="0.127" layer="21"/>
<wire x1="2.1" y1="0.3" x2="2" y2="0.3" width="0.127" layer="21"/>
<wire x1="2" y1="0.3" x2="2" y2="1.05" width="0.127" layer="21"/>
</package>
</packages>
<packages3d>
<package3d name="SOP65P600X170-14N" urn="urn:adsk.eagle:package:15127072/1" type="model">
<description>14-SOP, 0.65 mm pitch, 6.00 mm span, 4.90 X 3.10 X 1.70 mm body
&lt;p&gt;14-pin SOP package with 0.65 mm pitch, 6.00 mm span with body size 4.90 X 3.10 X 1.70 mm&lt;/p&gt;</description>
<packageinstances>
<packageinstance name="SOP65P600X170-14N"/>
</packageinstances>
</package3d>
</packages3d>
<symbols>
<symbol name="IFX81481ELVXUMA1">
<pin name="IVCC" x="-17.78" y="15.24" visible="pin" length="middle"/>
<pin name="VS" x="-17.78" y="10.16" visible="pin" length="middle"/>
<pin name="EN" x="-17.78" y="5.08" visible="pin" length="middle"/>
<pin name="GND" x="-17.78" y="0" visible="pin" length="middle"/>
<pin name="SYNC" x="-17.78" y="-5.08" visible="pin" length="middle"/>
<pin name="COMP" x="-17.78" y="-10.16" visible="pin" length="middle"/>
<pin name="FB" x="-17.78" y="-15.24" visible="pin" length="middle"/>
<pin name="PGND" x="17.78" y="-15.24" visible="pin" length="middle" rot="R180"/>
<pin name="LG" x="17.78" y="-10.16" visible="pin" length="middle" rot="R180"/>
<pin name="BUO" x="17.78" y="-5.08" visible="pin" length="middle" rot="R180"/>
<pin name="UG" x="17.78" y="0" visible="pin" length="middle" rot="R180"/>
<pin name="BTS" x="17.78" y="5.08" visible="pin" length="middle" rot="R180"/>
<pin name="SENSELOW" x="17.78" y="10.16" visible="pin" length="middle" rot="R180"/>
<pin name="SENSEHIGH" x="17.78" y="15.24" visible="pin" length="middle" rot="R180"/>
<wire x1="-12.7" y1="20.32" x2="-12.7" y2="17.78" width="0.254" layer="94"/>
<wire x1="-12.7" y1="17.78" x2="-12.7" y2="-20.32" width="0.254" layer="94"/>
<wire x1="-12.7" y1="-20.32" x2="12.7" y2="-20.32" width="0.254" layer="94"/>
<wire x1="12.7" y1="-20.32" x2="12.7" y2="20.32" width="0.254" layer="94"/>
<wire x1="12.7" y1="20.32" x2="-10.16" y2="20.32" width="0.254" layer="94"/>
<wire x1="-10.16" y1="20.32" x2="-12.7" y2="20.32" width="0.254" layer="94"/>
<wire x1="-12.7" y1="17.78" x2="-10.16" y2="20.32" width="0.254" layer="94"/>
<pin name="BOT_GND" x="0" y="-22.86" length="short" rot="R90"/>
<text x="-12.7" y="21.59" size="1.27" layer="95">&gt;NAME</text>
<text x="-2.54" y="21.59" size="1.27" layer="96">&gt;VALUE</text>
</symbol>
<symbol name="INDUCTOR">
<wire x1="-5.08" y1="0" x2="-3.81" y2="1.27" width="0.254" layer="94" curve="-90" cap="flat"/>
<wire x1="-2.54" y1="0" x2="-3.81" y2="1.27" width="0.254" layer="94" curve="90" cap="flat"/>
<wire x1="-2.54" y1="0" x2="-1.27" y2="1.27" width="0.254" layer="94" curve="-90" cap="flat"/>
<wire x1="0" y1="0" x2="-1.27" y2="1.27" width="0.254" layer="94" curve="90" cap="flat"/>
<wire x1="0" y1="0" x2="1.27" y2="1.27" width="0.254" layer="94" curve="-90" cap="flat"/>
<wire x1="2.54" y1="0" x2="1.27" y2="1.27" width="0.254" layer="94" curve="90" cap="flat"/>
<wire x1="2.54" y1="0" x2="3.81" y2="1.27" width="0.254" layer="94" curve="-90" cap="flat"/>
<wire x1="5.08" y1="0" x2="3.81" y2="1.27" width="0.254" layer="94" curve="90" cap="flat"/>
<text x="-5.08" y="3.81" size="1.778" layer="95" rot="R180">&gt;NAME</text>
<text x="10.16" y="3.81" size="1.778" layer="96" rot="R180">&gt;VALUE</text>
<pin name="1" x="-7.62" y="0" visible="off" length="short" direction="pas" swaplevel="1"/>
<pin name="2" x="7.62" y="0" visible="off" length="short" direction="pas" swaplevel="1" rot="R180"/>
</symbol>
<symbol name="MOSFET-N">
<wire x1="0.762" y1="0.762" x2="0.762" y2="0" width="0.254" layer="94"/>
<wire x1="0.762" y1="0" x2="0.762" y2="-0.762" width="0.254" layer="94"/>
<wire x1="0.762" y1="3.175" x2="0.762" y2="2.54" width="0.254" layer="94"/>
<wire x1="0.762" y1="2.54" x2="0.762" y2="1.905" width="0.254" layer="94"/>
<wire x1="0.762" y1="0" x2="2.54" y2="0" width="0.1524" layer="94"/>
<wire x1="2.54" y1="0" x2="2.54" y2="-2.54" width="0.1524" layer="94"/>
<wire x1="0.762" y1="-1.905" x2="0.762" y2="-2.54" width="0.254" layer="94"/>
<wire x1="0.762" y1="-2.54" x2="0.762" y2="-3.175" width="0.254" layer="94"/>
<wire x1="0" y1="2.54" x2="0" y2="-2.54" width="0.254" layer="94"/>
<wire x1="2.54" y1="-2.54" x2="0.762" y2="-2.54" width="0.1524" layer="94"/>
<wire x1="3.81" y1="2.54" x2="3.81" y2="0.508" width="0.1524" layer="94"/>
<wire x1="3.81" y1="0.508" x2="3.81" y2="-2.54" width="0.1524" layer="94"/>
<wire x1="2.54" y1="-2.54" x2="3.81" y2="-2.54" width="0.1524" layer="94"/>
<wire x1="0.762" y1="2.54" x2="3.81" y2="2.54" width="0.1524" layer="94"/>
<wire x1="4.572" y1="0.762" x2="4.318" y2="0.508" width="0.1524" layer="94"/>
<wire x1="4.318" y1="0.508" x2="3.81" y2="0.508" width="0.1524" layer="94"/>
<wire x1="3.81" y1="0.508" x2="3.302" y2="0.508" width="0.1524" layer="94"/>
<wire x1="3.302" y1="0.508" x2="3.048" y2="0.254" width="0.1524" layer="94"/>
<circle x="2.54" y="-2.54" radius="0.3592" width="0" layer="94"/>
<circle x="2.54" y="2.54" radius="0.3592" width="0" layer="94"/>
<text x="5.08" y="0.635" size="1.27" layer="95">&gt;NAME</text>
<text x="5.08" y="-1.27" size="1.27" layer="96">&gt;VALUE</text>
<text x="3.175" y="3.175" size="0.8128" layer="94">D</text>
<text x="3.175" y="-3.81" size="0.8128" layer="94">S</text>
<text x="-1.27" y="-1.905" size="0.8128" layer="94">G</text>
<pin name="G" x="-2.54" y="-2.54" visible="off" length="short"/>
<pin name="S" x="2.54" y="-5.08" visible="off" length="short" rot="R90"/>
<pin name="D" x="2.54" y="5.08" visible="off" length="short" rot="R270"/>
<polygon width="0.1524" layer="94">
<vertex x="3.81" y="0.508"/>
<vertex x="3.302" y="-0.254"/>
<vertex x="4.318" y="-0.254"/>
</polygon>
<polygon width="0.1524" layer="94">
<vertex x="1.016" y="0"/>
<vertex x="2.032" y="0.762"/>
<vertex x="2.032" y="-0.762"/>
</polygon>
</symbol>
<symbol name="SCHOTTKY-DIODE">
<wire x1="0.254" y1="1.016" x2="0.254" y2="1.524" width="0.1524" layer="94"/>
<wire x1="0.254" y1="1.524" x2="0.762" y2="1.524" width="0.1524" layer="94"/>
<wire x1="0.762" y1="1.524" x2="0.762" y2="-1.524" width="0.1524" layer="94"/>
<wire x1="0.762" y1="-1.524" x2="1.27" y2="-1.524" width="0.1524" layer="94"/>
<wire x1="1.27" y1="-1.524" x2="1.27" y2="-1.016" width="0.1524" layer="94"/>
<text x="5.08" y="6.35" size="1.778" layer="95" rot="R180">&gt;NAME</text>
<text x="5.08" y="3.81" size="1.778" layer="96" rot="R180">&gt;VALUE</text>
<pin name="A" x="-2.54" y="0" visible="off" length="short" direction="pas"/>
<pin name="C" x="2.54" y="0" visible="off" length="short" direction="pas" rot="R180"/>
<polygon width="0.1524" layer="94">
<vertex x="0.762" y="0"/>
<vertex x="-1.016" y="1.016"/>
<vertex x="-1.016" y="-1.016"/>
</polygon>
</symbol>
</symbols>
<devicesets>
<deviceset name="IFX81481ELVXUMA1" prefix="U" uservalue="yes">
<description>DC/DC Controller, Buck, Step Down, 4.75 V to 45 V Supply, 99 % Duty Cycle, 700 kHz, SSOP-14</description>
<gates>
<gate name="G$1" symbol="IFX81481ELVXUMA1" x="0" y="0"/>
</gates>
<devices>
<device name="" package="PG-SSOP14">
<connects>
<connect gate="G$1" pin="BOT_GND" pad="GND"/>
<connect gate="G$1" pin="BTS" pad="12"/>
<connect gate="G$1" pin="BUO" pad="10"/>
<connect gate="G$1" pin="COMP" pad="6"/>
<connect gate="G$1" pin="EN" pad="3"/>
<connect gate="G$1" pin="FB" pad="7"/>
<connect gate="G$1" pin="GND" pad="4"/>
<connect gate="G$1" pin="IVCC" pad="1"/>
<connect gate="G$1" pin="LG" pad="9"/>
<connect gate="G$1" pin="PGND" pad="8"/>
<connect gate="G$1" pin="SENSEHIGH" pad="14"/>
<connect gate="G$1" pin="SENSELOW" pad="13"/>
<connect gate="G$1" pin="SYNC" pad="5"/>
<connect gate="G$1" pin="UG" pad="11"/>
<connect gate="G$1" pin="VS" pad="2"/>
</connects>
<technologies>
<technology name="">
<attribute name="VALUE" value="IFX81481ELVXUMA1" constant="no"/>
</technology>
</technologies>
</device>
</devices>
</deviceset>
<deviceset name="SRR1280-5R6Y">
<description>Power Inductor (SMD), 5.6 µH, 8 A, Shielded, 8.5 A, SRR1280 Series, 12.5mm x 12.5mm x 7.5mm</description>
<gates>
<gate name="G$1" symbol="INDUCTOR" x="0" y="0"/>
</gates>
<devices>
<device name="" package="INDUCTOR_12.5X12.5">
<connects>
<connect gate="G$1" pin="1" pad="P$1"/>
<connect gate="G$1" pin="2" pad="P$2"/>
</connects>
<technologies>
<technology name="">
<attribute name="VALUE" value="5µ9" constant="no"/>
</technology>
</technologies>
</device>
</devices>
</deviceset>
<deviceset name="IPD70N10S3L12ATMA1">
<gates>
<gate name="G$1" symbol="MOSFET-N" x="-2.54" y="0"/>
</gates>
<devices>
<device name="" package="PG-TO252-3-11">
<connects>
<connect gate="G$1" pin="D" pad="2"/>
<connect gate="G$1" pin="G" pad="1"/>
<connect gate="G$1" pin="S" pad="3"/>
</connects>
<technologies>
<technology name=""/>
</technologies>
</device>
</devices>
</deviceset>
<deviceset name="STPS10M60SF">
<description>Schottky Rectifier, 60 V, 10 A, Single, TO-277A, 3 Pins, 650 mV</description>
<gates>
<gate name="A" symbol="SCHOTTKY-DIODE" x="0" y="0"/>
</gates>
<devices>
<device name="" package="TO-277A">
<connects>
<connect gate="A" pin="A" pad="2 3"/>
<connect gate="A" pin="C" pad="1"/>
</connects>
<technologies>
<technology name=""/>
</technologies>
</device>
</devices>
</deviceset>
</devicesets>
</library>
</drawing>
<compatibility>
<note version="8.3" severity="warning">
Since Version 8.3, EAGLE supports URNs for individual library
assets (packages, symbols, and devices). The URNs of those assets
will not be understood (or retained) with this version.
</note>
<note version="8.3" severity="warning">
Since Version 8.3, EAGLE supports the association of 3D packages
with devices in libraries, schematics, and board files. Those 3D
packages will not be understood (or retained) with this version.
</note>
</compatibility>
</eagle>
