Added Member To Class: ClassName=MainBoard Member=Component J1 693072010801
Added Member To Class: ClassName=MainBoard Member=Component J1 StackingConnector
Added Room: Name=MainBoard
Added Room: Name=U_BasicMicrocontroller
