Added Pin To Net: NetName=GND Pin=C7-2
Added Pin To Net: NetName=GND Pin=C8-2
Added Pin To Net: NetName=GND Pin=C9-1
Added Pin To Net: NetName=GND Pin=C10-1
Added Member To Class: ClassName=MainBoard Member=Component J1 693072010801
Added Room: Name=MainBoard
Added Room: Name=U_BasicMicrocontroller
