G04*
G04 #@! TF.GenerationSoftware,Altium Limited,Altium Designer,20.0.12 (288)*
G04*
G04 Layer_Physical_Order=1*
G04 Layer_Color=255*
%FSLAX25Y25*%
%MOIN*%
G70*
G01*
G75*
%ADD16R,0.05512X0.04724*%
%ADD17R,0.04724X0.05512*%
%ADD18R,0.01000X0.01000*%
%ADD19R,0.04528X0.03228*%
%ADD30C,0.03937*%
%ADD31C,0.05906*%
%ADD32C,0.01968*%
%ADD33C,0.07874*%
%ADD34R,0.06496X0.06496*%
%ADD35C,0.06496*%
%ADD36C,0.05906*%
%ADD37R,0.05906X0.05906*%
%ADD38C,0.31496*%
%ADD39C,0.05000*%
G36*
X171260Y344685D02*
X185433D01*
Y326614D01*
X174980D01*
Y323661D01*
X170768D01*
Y327008D01*
X173425D01*
Y342717D01*
X171260D01*
Y344685D01*
D02*
G37*
G36*
X202756D02*
X188583D01*
Y326614D01*
X199035D01*
Y323661D01*
X203248D01*
Y327008D01*
X200591D01*
Y342717D01*
X202756D01*
Y344685D01*
D02*
G37*
D16*
X240158Y176772D02*
D03*
Y169685D02*
D03*
X251969Y169685D02*
D03*
Y176772D02*
D03*
Y191339D02*
D03*
Y198425D02*
D03*
X299213Y191339D02*
D03*
Y198425D02*
D03*
X289370Y191339D02*
D03*
Y198425D02*
D03*
X279528Y191339D02*
D03*
Y198425D02*
D03*
X198819Y289764D02*
D03*
Y296850D02*
D03*
X183071Y289764D02*
D03*
Y296850D02*
D03*
X228346Y361811D02*
D03*
Y354724D02*
D03*
Y342126D02*
D03*
Y335039D02*
D03*
X214567Y354724D02*
D03*
Y361811D02*
D03*
D17*
X151969Y354331D02*
D03*
X159055D02*
D03*
Y370079D02*
D03*
X151969D02*
D03*
X159055Y385827D02*
D03*
X151969D02*
D03*
X191339Y305118D02*
D03*
X198425D02*
D03*
X175591D02*
D03*
X182677D02*
D03*
D18*
X177756Y328740D02*
D03*
X193504D02*
D03*
D19*
X198996Y314409D02*
D03*
X191004D02*
D03*
X183012D02*
D03*
X175020D02*
D03*
D30*
X218110Y289764D02*
X246063Y261811D01*
X207087Y289764D02*
X218110D01*
X220472Y346457D02*
X228346D01*
X383858D01*
X393701Y295276D02*
Y336614D01*
X383858Y346457D02*
X393701Y336614D01*
X382087Y291535D02*
X382463Y291912D01*
X390337D01*
X393701Y295276D01*
X183071Y275590D02*
X196850Y261811D01*
Y261811D02*
Y261811D01*
X183071Y275590D02*
Y289764D01*
X165354Y281496D02*
Y322835D01*
Y281496D02*
X187008Y259842D01*
X279528Y179134D02*
Y191339D01*
Y179134D02*
X289370Y169291D01*
X279528Y198425D02*
X279528Y198425D01*
X279528Y198425D02*
Y208661D01*
X289370Y198425D02*
Y204724D01*
X374213Y213098D02*
X374516D01*
X297744Y213098D02*
X374213Y213098D01*
X374516Y205224D02*
Y213098D01*
X374213Y204921D02*
X374516Y205224D01*
X374016Y204724D02*
X374213Y204921D01*
X289370Y204724D02*
X297744Y213098D01*
X289370Y191339D02*
X289370Y191339D01*
X289370Y169291D02*
Y191339D01*
X251575Y191732D02*
X251969Y191339D01*
X247244Y191732D02*
X251575D01*
X240158Y198819D02*
X247244Y191732D01*
X240158Y198819D02*
Y218504D01*
X232283Y226378D02*
X240158Y218504D01*
X240158Y176772D02*
X240158Y176772D01*
Y187008D01*
X251969Y177165D02*
Y190945D01*
X185531Y246063D02*
X185531Y246063D01*
X165354Y322835D02*
X179134Y336614D01*
X318484Y289370D02*
X360236D01*
X185531Y246063D02*
X275177D01*
X318484Y289370D01*
X189476Y236720D02*
X189476Y236720D01*
X323803Y281496D02*
X352362D01*
X279028Y236720D02*
X323803Y281496D01*
X189476Y236720D02*
X279028D01*
X189476Y236720D02*
X210130D01*
X138295D02*
X189476D01*
X330709Y264327D02*
Y275590D01*
X292760Y226378D02*
X330709Y264327D01*
X232283Y226378D02*
X292760D01*
X228346Y346457D02*
Y354724D01*
X212598Y295276D02*
Y338583D01*
X220472Y346457D01*
X198819Y289764D02*
X207087D01*
X212598Y295276D01*
X196850Y377953D02*
X212992Y361811D01*
X193504Y334055D02*
X214173Y354724D01*
X212992Y361811D02*
X228346D01*
X159055Y370079D02*
X179789D01*
X186479Y376769D01*
Y377463D01*
X186969Y377953D01*
X193504Y328740D02*
Y334055D01*
X214173Y354724D02*
X214567D01*
X145669Y305118D02*
Y366142D01*
Y305118D02*
X147638Y303150D01*
X145669Y366142D02*
X148819Y369291D01*
X151772Y354134D02*
X151969Y354331D01*
X151772Y342717D02*
Y354134D01*
X151575Y342520D02*
X151772Y342717D01*
X151969Y369685D02*
Y370079D01*
X151575Y369291D02*
X151969Y369685D01*
X148819Y369291D02*
X151575D01*
X137992Y323031D02*
X138369Y323408D01*
Y380495D01*
X143701Y385827D01*
X151969D02*
X151969Y385827D01*
X143701Y385827D02*
X151969D01*
X159055Y370079D02*
Y385827D01*
Y354331D02*
Y370079D01*
X190945Y297244D02*
Y314350D01*
X191004Y314409D01*
X198907Y314321D02*
X198996Y314409D01*
X198907Y296939D02*
Y314321D01*
X198819Y296850D02*
X198907Y296939D01*
X183012Y314409D02*
X183041Y314380D01*
Y296880D02*
Y314380D01*
Y296880D02*
X183071Y296850D01*
X175197Y297244D02*
Y314232D01*
X175020Y314409D02*
X175197Y314232D01*
X228346Y320866D02*
X228346Y320866D01*
X228346Y320866D02*
Y335039D01*
X332677Y236221D02*
X333054Y236597D01*
X334446D01*
X334569Y236720D01*
X372747Y275714D02*
X374139D01*
X372624Y275590D02*
X372747Y275714D01*
X358268Y275590D02*
X372624D01*
X352362Y281496D02*
X358268Y275590D01*
X372515Y285433D02*
X373983Y283965D01*
X364173Y285433D02*
X372515D01*
X360236Y289370D02*
X364173Y285433D01*
X334569Y236720D02*
X374516D01*
X210130D02*
X220276Y226575D01*
Y133858D02*
Y226575D01*
X138295Y228847D02*
X138795Y228346D01*
X155512D01*
X165157Y133858D02*
Y218701D01*
X155512Y228346D02*
X165157Y218701D01*
X374516Y181602D02*
Y189476D01*
X374016Y188976D02*
X374516Y189476D01*
X346457Y188976D02*
X374016D01*
X328740Y206693D02*
X346457Y188976D01*
X303150Y206693D02*
X328740D01*
X299213Y202756D02*
X303150Y206693D01*
X299213Y198425D02*
Y202756D01*
Y179134D02*
Y191339D01*
X289370Y169291D02*
X299213Y179134D01*
X289370Y133898D02*
X289409Y133858D01*
X289370Y133898D02*
Y169291D01*
D31*
X138295Y299713D02*
Y307587D01*
D32*
X251969Y198425D02*
Y208661D01*
Y161417D02*
Y169685D01*
X251969Y161417D02*
X251969Y161417D01*
X240158Y169685D02*
X251969D01*
Y161417D02*
X279528Y133858D01*
D33*
X147638Y303150D02*
X155512Y295276D01*
Y273622D02*
Y295276D01*
Y273622D02*
X175197Y253937D01*
Y253937D02*
Y253937D01*
X139764Y303150D02*
X147638D01*
D34*
X176969Y377953D02*
D03*
X346457D02*
D03*
X185039Y133858D02*
D03*
X240158D02*
D03*
X299410D02*
D03*
X291339Y399606D02*
D03*
X352520Y112205D02*
D03*
X245905Y399606D02*
D03*
D35*
X196850Y377953D02*
D03*
X186969D02*
D03*
X356457D02*
D03*
X175039Y133858D02*
D03*
X165157D02*
D03*
X230157D02*
D03*
X220276D02*
D03*
X289409D02*
D03*
X279528D02*
D03*
X321339Y399606D02*
D03*
X311339D02*
D03*
X301339D02*
D03*
X322520Y112205D02*
D03*
X332520D02*
D03*
X342520D02*
D03*
X275905Y399606D02*
D03*
X265905D02*
D03*
X255906D02*
D03*
D36*
X130118Y330906D02*
D03*
Y323031D02*
D03*
Y315158D02*
D03*
Y307283D02*
D03*
Y299410D02*
D03*
Y291535D02*
D03*
Y283661D02*
D03*
Y275787D02*
D03*
Y267913D02*
D03*
Y260039D02*
D03*
Y252165D02*
D03*
Y244291D02*
D03*
Y236417D02*
D03*
Y228543D02*
D03*
Y220669D02*
D03*
Y212795D02*
D03*
Y204921D02*
D03*
Y197047D02*
D03*
Y189173D02*
D03*
Y181299D02*
D03*
X137992Y323031D02*
D03*
Y315158D02*
D03*
Y307283D02*
D03*
Y299410D02*
D03*
Y291535D02*
D03*
Y283661D02*
D03*
Y275787D02*
D03*
Y267913D02*
D03*
Y260039D02*
D03*
Y252165D02*
D03*
Y244291D02*
D03*
Y236417D02*
D03*
Y228543D02*
D03*
Y220669D02*
D03*
Y212795D02*
D03*
Y204921D02*
D03*
Y197047D02*
D03*
Y189173D02*
D03*
Y181299D02*
D03*
X382087D02*
D03*
Y189173D02*
D03*
Y197047D02*
D03*
Y204921D02*
D03*
Y212795D02*
D03*
Y220669D02*
D03*
Y228543D02*
D03*
Y236417D02*
D03*
Y244291D02*
D03*
Y252165D02*
D03*
Y260039D02*
D03*
Y267913D02*
D03*
Y275787D02*
D03*
Y283661D02*
D03*
Y291535D02*
D03*
Y299410D02*
D03*
Y307283D02*
D03*
Y315158D02*
D03*
Y323031D02*
D03*
Y330906D02*
D03*
X374213Y189173D02*
D03*
Y197047D02*
D03*
Y204921D02*
D03*
Y212795D02*
D03*
Y220669D02*
D03*
Y228543D02*
D03*
Y236417D02*
D03*
Y244291D02*
D03*
Y252165D02*
D03*
Y260039D02*
D03*
Y267913D02*
D03*
Y275787D02*
D03*
Y283661D02*
D03*
Y291535D02*
D03*
Y299410D02*
D03*
Y307283D02*
D03*
Y315158D02*
D03*
Y323031D02*
D03*
Y330906D02*
D03*
X332677Y236221D02*
D03*
D37*
X137992Y330906D02*
D03*
X374213Y181299D02*
D03*
D38*
X122047Y389764D02*
D03*
X389764D02*
D03*
Y122047D02*
D03*
X122047D02*
D03*
D39*
X246063Y261811D02*
D03*
X196850D02*
D03*
X187008Y259842D02*
D03*
X279528Y208661D02*
D03*
X251969D02*
D03*
X240158Y187008D02*
D03*
X185531Y246063D02*
D03*
X330709Y275590D02*
D03*
X175197Y253937D02*
D03*
X151575Y342520D02*
D03*
X190945Y297244D02*
D03*
X175197D02*
D03*
X228346Y320866D02*
D03*
X232283Y226378D02*
D03*
M02*
