G04*
G04 #@! TF.GenerationSoftware,Altium Limited,Altium Designer,20.0.12 (288)*
G04*
G04 Layer_Physical_Order=1*
G04 Layer_Color=255*
%FSLAX25Y25*%
%MOIN*%
G70*
G01*
G75*
%ADD11C,0.01000*%
%ADD15R,0.05512X0.04724*%
%ADD16R,0.04724X0.05512*%
%ADD17R,0.03937X0.05512*%
%ADD18R,0.06299X0.08583*%
%ADD19R,0.06299X0.08661*%
%ADD20O,0.05709X0.02362*%
%ADD21R,0.04724X0.04331*%
%ADD22R,0.18819X0.12402*%
G04:AMPARAMS|DCode=23|XSize=55.12mil|YSize=47.24mil|CornerRadius=0mil|HoleSize=0mil|Usage=FLASHONLY|Rotation=135.000|XOffset=0mil|YOffset=0mil|HoleType=Round|Shape=Rectangle|*
%AMROTATEDRECTD23*
4,1,4,0.03619,-0.00278,0.00278,-0.03619,-0.03619,0.00278,-0.00278,0.03619,0.03619,-0.00278,0.0*
%
%ADD23ROTATEDRECTD23*%

G04:AMPARAMS|DCode=24|XSize=216.54mil|YSize=78.74mil|CornerRadius=0mil|HoleSize=0mil|Usage=FLASHONLY|Rotation=45.000|XOffset=0mil|YOffset=0mil|HoleType=Round|Shape=Rectangle|*
%AMROTATEDRECTD24*
4,1,4,-0.04872,-0.10440,-0.10440,-0.04872,0.04872,0.10440,0.10440,0.04872,-0.04872,-0.10440,0.0*
%
%ADD24ROTATEDRECTD24*%

%ADD25R,0.03150X0.05906*%
%ADD26R,0.05709X0.07874*%
G04:AMPARAMS|DCode=27|XSize=55.12mil|YSize=47.24mil|CornerRadius=0mil|HoleSize=0mil|Usage=FLASHONLY|Rotation=45.000|XOffset=0mil|YOffset=0mil|HoleType=Round|Shape=Rectangle|*
%AMROTATEDRECTD27*
4,1,4,-0.00278,-0.03619,-0.03619,-0.00278,0.00278,0.03619,0.03619,0.00278,-0.00278,-0.03619,0.0*
%
%ADD27ROTATEDRECTD27*%

G04:AMPARAMS|DCode=28|XSize=9.84mil|YSize=61.02mil|CornerRadius=0mil|HoleSize=0mil|Usage=FLASHONLY|Rotation=45.000|XOffset=0mil|YOffset=0mil|HoleType=Round|Shape=Round|*
%AMOVALD28*
21,1,0.05118,0.00984,0.00000,0.00000,135.0*
1,1,0.00984,0.01810,-0.01810*
1,1,0.00984,-0.01810,0.01810*
%
%ADD28OVALD28*%

G04:AMPARAMS|DCode=29|XSize=9.84mil|YSize=61.02mil|CornerRadius=0mil|HoleSize=0mil|Usage=FLASHONLY|Rotation=315.000|XOffset=0mil|YOffset=0mil|HoleType=Round|Shape=Round|*
%AMOVALD29*
21,1,0.05118,0.00984,0.00000,0.00000,45.0*
1,1,0.00984,-0.01810,-0.01810*
1,1,0.00984,0.01810,0.01810*
%
%ADD29OVALD29*%

%ADD55C,0.05906*%
%ADD56R,0.05906X0.05906*%
%ADD57C,0.05315*%
%ADD58C,0.06496*%
%ADD59R,0.06496X0.06496*%
%ADD60R,0.05906X0.05906*%
%ADD61C,0.31496*%
%ADD62C,0.05000*%
G36*
X70926Y61811D02*
X70926Y61811D01*
X71011Y61382D01*
X71254Y61018D01*
X75650Y56622D01*
Y35246D01*
X74597D01*
Y28140D01*
X79981D01*
Y12598D01*
X79981Y12598D01*
X49606D01*
Y66929D01*
X70926D01*
Y61811D01*
D02*
G37*
G36*
X88642Y35246D02*
X88008D01*
Y35646D01*
X85933D01*
Y31693D01*
X84933D01*
Y35646D01*
X82858D01*
Y35246D01*
X82224D01*
Y66929D01*
X88642D01*
Y35246D01*
D02*
G37*
G36*
X136614Y15295D02*
X105976D01*
X99547Y21724D01*
Y28140D01*
X109261D01*
Y35246D01*
X108208D01*
Y40874D01*
X109454Y42120D01*
X109455Y42120D01*
X109698Y42484D01*
X109783Y42913D01*
Y66929D01*
X136614D01*
Y15295D01*
D02*
G37*
%LPC*%
G36*
X57193Y62669D02*
Y59705D01*
X60157D01*
X60103Y60118D01*
X59750Y60970D01*
X59189Y61701D01*
X58458Y62262D01*
X57607Y62615D01*
X57193Y62669D01*
D02*
G37*
G36*
X56193D02*
X55779Y62615D01*
X54928Y62262D01*
X54197Y61701D01*
X53636Y60970D01*
X53283Y60118D01*
X53228Y59705D01*
X56193D01*
Y62669D01*
D02*
G37*
G36*
X60157Y58705D02*
X57193D01*
Y55740D01*
X57607Y55795D01*
X58458Y56147D01*
X59189Y56709D01*
X59750Y57440D01*
X60103Y58291D01*
X60157Y58705D01*
D02*
G37*
G36*
X56193D02*
X53228D01*
X53283Y58291D01*
X53636Y57440D01*
X54197Y56709D01*
X54928Y56147D01*
X55779Y55795D01*
X56193Y55740D01*
Y58705D01*
D02*
G37*
G36*
X71276Y59071D02*
X67921D01*
Y54634D01*
X71276D01*
Y59071D01*
D02*
G37*
G36*
X66921D02*
X63567D01*
Y54634D01*
X66921D01*
Y59071D01*
D02*
G37*
G36*
X71276Y53634D02*
X67921D01*
Y49197D01*
X71276D01*
Y53634D01*
D02*
G37*
G36*
X66921D02*
X63567D01*
Y49197D01*
X66921D01*
Y53634D01*
D02*
G37*
G36*
X57193Y46771D02*
Y43807D01*
X60157D01*
X60103Y44221D01*
X59750Y45072D01*
X59189Y45803D01*
X58458Y46364D01*
X57607Y46717D01*
X57193Y46771D01*
D02*
G37*
G36*
X56193D02*
X55779Y46717D01*
X54928Y46364D01*
X54197Y45803D01*
X53636Y45072D01*
X53283Y44221D01*
X53228Y43807D01*
X56193D01*
Y46771D01*
D02*
G37*
G36*
X60157Y42807D02*
X57193D01*
Y39843D01*
X57607Y39897D01*
X58458Y40250D01*
X59189Y40811D01*
X59750Y41542D01*
X60103Y42393D01*
X60157Y42807D01*
D02*
G37*
G36*
X56193D02*
X53228D01*
X53283Y42393D01*
X53636Y41542D01*
X54197Y40811D01*
X54928Y40250D01*
X55779Y39897D01*
X56193Y39843D01*
Y42807D01*
D02*
G37*
G36*
X64173Y34229D02*
X63364Y34123D01*
X62610Y33810D01*
X61962Y33313D01*
X61465Y32666D01*
X61282Y32224D01*
X58474D01*
Y34065D01*
X51762D01*
Y28140D01*
X58474D01*
Y29981D01*
X61282D01*
X61465Y29539D01*
X61962Y28891D01*
X62610Y28394D01*
X63364Y28082D01*
X64173Y27976D01*
X64982Y28082D01*
X65737Y28394D01*
X66384Y28891D01*
X66881Y29539D01*
X67193Y30293D01*
X67300Y31102D01*
X67193Y31912D01*
X66881Y32666D01*
X66384Y33313D01*
X65737Y33810D01*
X64982Y34123D01*
X64173Y34229D01*
D02*
G37*
G36*
X58874Y27378D02*
X55618D01*
Y24516D01*
X58874D01*
Y27378D01*
D02*
G37*
G36*
X54618D02*
X51362D01*
Y24516D01*
X54618D01*
Y27378D01*
D02*
G37*
G36*
X66921Y26394D02*
X63567D01*
Y21957D01*
X66921D01*
Y26394D01*
D02*
G37*
G36*
X75697Y24724D02*
Y21760D01*
X78661D01*
X78607Y22174D01*
X78254Y23025D01*
X77693Y23756D01*
X76962Y24317D01*
X76111Y24670D01*
X75697Y24724D01*
D02*
G37*
G36*
X58874Y23516D02*
X55618D01*
Y20654D01*
X58874D01*
Y23516D01*
D02*
G37*
G36*
X54618D02*
X51362D01*
Y20654D01*
X54618D01*
Y23516D01*
D02*
G37*
G36*
X78661Y20760D02*
X75697D01*
Y17796D01*
X76111Y17850D01*
X76962Y18203D01*
X77693Y18764D01*
X78254Y19495D01*
X78607Y20346D01*
X78661Y20760D01*
D02*
G37*
G36*
X71276Y26394D02*
X67921D01*
Y21457D01*
Y16520D01*
X71276D01*
Y20400D01*
X71776Y20432D01*
X71787Y20346D01*
X72140Y19495D01*
X72701Y18764D01*
X73432Y18203D01*
X74283Y17850D01*
X74697Y17796D01*
Y21260D01*
Y24724D01*
X74283Y24670D01*
X73432Y24317D01*
X72701Y23756D01*
X72140Y23025D01*
X71787Y22174D01*
X71776Y22087D01*
X71276Y22120D01*
Y26394D01*
D02*
G37*
G36*
X66921Y20957D02*
X63567D01*
Y16520D01*
X66921D01*
Y20957D01*
D02*
G37*
G36*
X131209Y62126D02*
Y59161D01*
X134173D01*
X134119Y59575D01*
X133766Y60426D01*
X133205Y61158D01*
X132474Y61719D01*
X131622Y62071D01*
X131209Y62126D01*
D02*
G37*
G36*
X130209D02*
X129795Y62071D01*
X128944Y61719D01*
X128212Y61158D01*
X127651Y60426D01*
X127299Y59575D01*
X127244Y59161D01*
X130209D01*
Y62126D01*
D02*
G37*
G36*
X134173Y58161D02*
X131209D01*
Y55197D01*
X131622Y55251D01*
X132474Y55604D01*
X133205Y56165D01*
X133766Y56896D01*
X134119Y57748D01*
X134173Y58161D01*
D02*
G37*
G36*
X130209D02*
X127244D01*
X127299Y57748D01*
X127651Y56896D01*
X128212Y56165D01*
X128944Y55604D01*
X129795Y55251D01*
X130209Y55197D01*
Y58161D01*
D02*
G37*
G36*
X125409Y59071D02*
X122055D01*
Y54634D01*
X125409D01*
Y59071D01*
D02*
G37*
G36*
X121055D02*
X117701D01*
Y54634D01*
X121055D01*
Y59071D01*
D02*
G37*
G36*
X125409Y53634D02*
X122055D01*
Y49197D01*
X125409D01*
Y53634D01*
D02*
G37*
G36*
X121055D02*
X117701D01*
Y49197D01*
X121055D01*
Y53634D01*
D02*
G37*
G36*
X131209Y45984D02*
Y43020D01*
X134173D01*
X134119Y43433D01*
X133766Y44285D01*
X133205Y45016D01*
X132474Y45577D01*
X131622Y45930D01*
X131209Y45984D01*
D02*
G37*
G36*
X130209D02*
X129795Y45930D01*
X128944Y45577D01*
X128212Y45016D01*
X127651Y44285D01*
X127299Y43433D01*
X127244Y43020D01*
X130209D01*
Y45984D01*
D02*
G37*
G36*
X134173Y42020D02*
X131209D01*
Y39055D01*
X131622Y39110D01*
X132474Y39463D01*
X133205Y40023D01*
X133766Y40755D01*
X134119Y41606D01*
X134173Y42020D01*
D02*
G37*
G36*
X130209D02*
X127244D01*
X127299Y41606D01*
X127651Y40755D01*
X128212Y40023D01*
X128944Y39463D01*
X129795Y39110D01*
X130209Y39055D01*
Y42020D01*
D02*
G37*
G36*
X121260Y35410D02*
X120451Y35304D01*
X119696Y34991D01*
X119049Y34494D01*
X118552Y33847D01*
X118240Y33093D01*
X118133Y32283D01*
X118240Y31474D01*
X118552Y30720D01*
X119049Y30073D01*
X119696Y29576D01*
X120451Y29263D01*
X121260Y29157D01*
X122069Y29263D01*
X122823Y29576D01*
X123471Y30073D01*
X123968Y30720D01*
X124151Y31162D01*
X127550D01*
Y29124D01*
X134261D01*
Y35049D01*
X127550D01*
Y33405D01*
X124151D01*
X123968Y33847D01*
X123471Y34494D01*
X122823Y34991D01*
X122069Y35304D01*
X121260Y35410D01*
D02*
G37*
G36*
X134661Y28362D02*
X131405D01*
Y25500D01*
X134661D01*
Y28362D01*
D02*
G37*
G36*
X130405D02*
X127150D01*
Y25500D01*
X130405D01*
Y28362D01*
D02*
G37*
G36*
X125409Y26394D02*
X122055D01*
Y21957D01*
X125409D01*
Y26394D01*
D02*
G37*
G36*
X121055D02*
X117701D01*
Y21957D01*
X121055D01*
Y26394D01*
D02*
G37*
G36*
X113492Y24724D02*
Y21760D01*
X116456D01*
X116402Y22174D01*
X116049Y23025D01*
X115488Y23756D01*
X114757Y24317D01*
X113906Y24670D01*
X113492Y24724D01*
D02*
G37*
G36*
X112492D02*
X112078Y24670D01*
X111227Y24317D01*
X110496Y23756D01*
X109935Y23025D01*
X109582Y22174D01*
X109528Y21760D01*
X112492D01*
Y24724D01*
D02*
G37*
G36*
X134661Y24500D02*
X131405D01*
Y21638D01*
X134661D01*
Y24500D01*
D02*
G37*
G36*
X130405D02*
X127150D01*
Y21638D01*
X130405D01*
Y24500D01*
D02*
G37*
G36*
X116456Y20760D02*
X113492D01*
Y17796D01*
X113906Y17850D01*
X114757Y18203D01*
X115488Y18764D01*
X116049Y19495D01*
X116402Y20346D01*
X116456Y20760D01*
D02*
G37*
G36*
X112492D02*
X109528D01*
X109582Y20346D01*
X109935Y19495D01*
X110496Y18764D01*
X111227Y18203D01*
X112078Y17850D01*
X112492Y17796D01*
Y20760D01*
D02*
G37*
G36*
X125409Y20957D02*
X122055D01*
Y16520D01*
X125409D01*
Y20957D01*
D02*
G37*
G36*
X121055D02*
X117701D01*
Y16520D01*
X121055D01*
Y20957D01*
D02*
G37*
%LPD*%
D11*
X283327Y262067D02*
X283425Y261968D01*
X302284Y243110D01*
X280039Y265354D02*
X283327Y262067D01*
X31496Y98110D02*
Y98425D01*
X26063Y92677D02*
X31496Y98110D01*
Y105591D02*
Y106299D01*
X24094Y98189D02*
X31496Y105591D01*
X283465Y224409D02*
X287984Y228929D01*
X283465Y216535D02*
Y217095D01*
X289772Y223402D02*
Y237394D01*
X283465Y217095D02*
X289772Y223402D01*
X185705Y184567D02*
X190748D01*
X162168Y161030D02*
X185705Y184567D01*
X109764Y254961D02*
X151654D01*
X103307Y248504D02*
X109764Y254961D01*
X194488Y103976D02*
Y123228D01*
Y103976D02*
X201732Y96732D01*
X221358D01*
X225000Y100374D02*
X226673D01*
X221358Y96732D02*
X225000Y100374D01*
X176324Y151128D02*
X180315Y155118D01*
X275590Y72441D02*
Y82677D01*
X150000Y203937D02*
X157037Y196900D01*
X149163Y189026D02*
X157037Y196900D01*
X146856Y186720D02*
X149163Y189026D01*
X218237Y103749D02*
X219862Y105374D01*
X226673D01*
X215560Y103749D02*
X218237D01*
X214567Y102756D02*
X215560Y103749D01*
X204842Y102441D02*
X213169D01*
X213779Y103051D01*
X169022Y296457D02*
X178510Y286968D01*
X51968Y296457D02*
X169022D01*
X213543Y262756D02*
X223150Y253150D01*
X184567Y262756D02*
X213543D01*
X151417Y245512D02*
Y254724D01*
X151654Y254961D01*
X70276Y140433D02*
X78780Y131929D01*
X70276Y140433D02*
Y154842D01*
X91260Y154646D02*
X91338Y154567D01*
X98622D01*
X83976Y163504D02*
X84055Y163583D01*
X74016Y163504D02*
X83976D01*
X83976Y154842D02*
X84173Y154646D01*
X70276Y154842D02*
X83976D01*
X88465Y128465D02*
X97795Y137795D01*
Y147598D02*
X100669Y150472D01*
X97795Y137795D02*
Y147598D01*
X100669Y150472D02*
X107520D01*
X66457Y163425D02*
X66535Y163504D01*
X58425Y163425D02*
X66457D01*
X91181Y163701D02*
X105039D01*
X105039Y163701D01*
X253937Y202756D02*
X275590Y224409D01*
X195542Y202756D02*
X253937D01*
X194648Y204646D02*
X244016D01*
X271654Y232283D01*
X275590D01*
X253740Y124843D02*
Y134567D01*
X283465Y82677D02*
X284250D01*
X221767Y213134D02*
X247268D01*
X245394Y208701D02*
X274646Y237953D01*
X224095Y208701D02*
X245394D01*
X205945Y214921D02*
X246496D01*
X273401Y241827D02*
X287866D01*
X274134Y240000D02*
X287165D01*
X274646Y237953D02*
X285827D01*
X247268Y213134D02*
X274134Y240000D01*
X246496Y214921D02*
X273401Y241827D01*
X249677Y223268D02*
X271811Y245402D01*
X247835Y218898D02*
X272551Y243614D01*
X288607D01*
X218858Y218898D02*
X247835D01*
X271811Y245402D02*
X289347D01*
X214055Y223268D02*
X249677D01*
X258661Y265354D02*
X280039D01*
X242244Y261142D02*
X246412Y265310D01*
X251531D02*
X251575Y265354D01*
X246412Y265310D02*
X251531D01*
X242244Y247638D02*
Y261142D01*
X302284Y233150D02*
X306102Y229331D01*
X302284Y233150D02*
Y243110D01*
X287984Y228929D02*
Y235795D01*
X285827Y237953D02*
X287984Y235795D01*
X289843Y247559D02*
X296921Y240480D01*
Y121583D02*
Y240480D01*
X293347Y210669D02*
Y238874D01*
X283465Y208661D02*
X291559Y216756D01*
X298709Y157197D02*
X303150Y152756D01*
X300496Y190759D02*
X301098Y190157D01*
X300496Y190759D02*
Y242220D01*
X283465Y200787D02*
X293347Y210669D01*
X288607Y243614D02*
X293347Y238874D01*
X290811Y249346D02*
X298709Y241449D01*
Y157197D02*
Y241449D01*
X295134Y204583D02*
Y239615D01*
X287866Y241827D02*
X291559Y238134D01*
X289347Y245402D02*
X295134Y239615D01*
X287165Y240000D02*
X289772Y237394D01*
X283465Y192913D02*
X295134Y204583D01*
X291559Y216756D02*
Y238134D01*
X290866Y251850D02*
X300496Y242220D01*
X296921Y121583D02*
X303150Y115354D01*
X290866Y251850D02*
Y251850D01*
X258661Y257598D02*
X285118D01*
X290866Y251850D01*
X268078Y249346D02*
X290811D01*
X268819Y247559D02*
X289843D01*
X231260Y236653D02*
X242244Y247638D01*
X210000Y236653D02*
X231260D01*
X212742Y228307D02*
X230945D01*
X242275Y239637D02*
X250661D01*
X230945Y228307D02*
X242275Y239637D01*
X230095Y230095D02*
X248298Y248298D01*
X197977Y230095D02*
X230095D01*
X251054Y248298D02*
X251575Y248819D01*
X248298Y248298D02*
X251054D01*
X178232Y210350D02*
X197977Y230095D01*
X197236Y231882D02*
X229126D01*
X244094Y246850D01*
X176378Y211024D02*
X197236Y231882D01*
X153816Y169381D02*
X212742Y228307D01*
X301098Y190157D02*
X306102D01*
X39492Y129799D02*
X46697D01*
X58976Y117520D02*
X88110D01*
X46697Y129799D02*
X58976Y117520D01*
X42277Y136857D02*
X59827Y119307D01*
X87142D01*
X39370Y137795D02*
X40309Y136857D01*
X42277D01*
X88110Y117520D02*
X108228Y137638D01*
X87142Y119307D02*
X103307Y135472D01*
Y145669D01*
X108228Y137638D02*
Y141299D01*
X82315Y109016D02*
X82315D01*
X66614Y83150D02*
Y93315D01*
X82315Y109016D01*
X82315D02*
X125838Y152539D01*
X89764Y31693D02*
Y113681D01*
Y14961D02*
Y31693D01*
Y113681D02*
X127230Y151147D01*
X108228Y141299D02*
X109916D01*
X39370Y185039D02*
X40276D01*
X53622Y171693D01*
X118110Y221654D02*
Y232441D01*
X170118Y65748D02*
X178386D01*
X178425Y65787D01*
X170118Y65748D02*
X170118Y65748D01*
X179567Y40551D02*
Y53504D01*
X183740Y57677D02*
Y90709D01*
X179567Y53504D02*
X183740Y57677D01*
X203976Y65748D02*
X204055Y65669D01*
X212323D01*
X160669Y53890D02*
Y131142D01*
X150709Y43929D02*
X160669Y53890D01*
X179567Y40551D02*
X179961Y40157D01*
X253740Y134567D02*
X256968Y137795D01*
X253740Y110960D02*
Y124843D01*
X248957Y62594D02*
X250039D01*
X258780Y126102D02*
X262598Y129921D01*
X258780Y119370D02*
Y126102D01*
X259055Y105374D02*
Y118162D01*
X256968Y137795D02*
X275590D01*
X248130Y110374D02*
X253154D01*
X241870D02*
X248130D01*
X253154D02*
X253740Y110960D01*
X275571Y177185D02*
X275590Y177165D01*
X248760Y177185D02*
X275571D01*
X248740Y177205D02*
X248760Y177185D01*
X253031Y185039D02*
X275590D01*
X253031Y185039D02*
X253031Y185039D01*
X150740Y51803D02*
X155984Y57047D01*
X150945Y61614D02*
Y121457D01*
X150709Y121693D02*
X150945Y121457D01*
X247666Y63886D02*
X248957Y62594D01*
X239016Y65748D02*
X240878Y63886D01*
X247666D01*
X27874Y72244D02*
X55709D01*
X66614Y83150D01*
X61890Y81142D02*
Y99291D01*
X54803Y74055D02*
X61890Y81142D01*
X28591Y74055D02*
X54803D01*
X24094Y76024D02*
Y98189D01*
Y76024D02*
X27874Y72244D01*
X26063Y76583D02*
Y92677D01*
Y76583D02*
X28591Y74055D01*
X155984Y57047D02*
Y126496D01*
X39370Y82677D02*
X53819D01*
X53858Y82717D01*
X39370Y90551D02*
X52165D01*
X52244Y90630D01*
X49724Y114173D02*
X50039Y113858D01*
X39370Y114173D02*
X49724D01*
X72205Y84409D02*
Y91969D01*
X72047Y84252D02*
X72205Y84409D01*
X84252Y9449D02*
X221299D01*
X92913Y11811D02*
X202401D01*
X105512Y14173D02*
X182323D01*
X121181Y101142D02*
Y133962D01*
X132798Y145579D01*
X103307Y145669D02*
X108268D01*
X124032Y161433D01*
X109916Y141299D02*
X110074Y141457D01*
X110214Y141316D01*
X111832D01*
X124446Y153931D01*
X94095Y93701D02*
Y115227D01*
X98425Y116774D02*
X130014Y148363D01*
X94095Y115227D02*
X128622Y149755D01*
X98425Y31693D02*
Y116774D01*
X117678Y166615D02*
X124417D01*
X110158Y159095D02*
X117678Y166615D01*
X105039Y163701D02*
Y163701D01*
X107520Y150472D02*
X121666Y164619D01*
X125827Y162422D02*
X125838D01*
X123630Y164619D02*
X125827Y162422D01*
X121666Y164619D02*
X123630D01*
X124417Y166615D02*
X127219Y163814D01*
X106406Y175197D02*
X112061Y169542D01*
X103110Y175197D02*
X106406D01*
X109134Y176772D02*
X114273D01*
X102913Y182992D02*
X109134Y176772D01*
X139907Y122190D02*
X145444Y116654D01*
X145787D01*
X150709Y121693D02*
Y134767D01*
X146856Y138619D02*
X150709Y134767D01*
X155984Y126496D02*
Y132276D01*
X148249Y140011D02*
X155984Y132276D01*
X195984Y155151D02*
Y189055D01*
X179544Y138710D02*
X195984Y155151D01*
X217491Y208858D02*
X221767Y213134D01*
X201929Y208858D02*
X217491D01*
X157992Y165206D02*
X195542Y202756D01*
X156600Y166597D02*
X194648Y204646D01*
X125849Y152539D02*
X128665Y155354D01*
X133858D01*
X142283Y149764D02*
Y154213D01*
X137651Y145132D02*
X142283Y149764D01*
X128046Y160225D02*
X141091D01*
X141772Y160906D01*
X137651Y145132D02*
X137779Y145004D01*
X135582Y142806D02*
X137779Y145004D01*
X125838Y152539D02*
X125849D01*
Y162422D02*
X128046Y160225D01*
X125838Y162422D02*
X125849D01*
X147441Y165433D02*
Y165551D01*
Y165433D02*
X150079Y162795D01*
X160776Y162422D02*
X191268Y192913D01*
X159384Y163814D02*
X196358Y200787D01*
X275590D01*
X191268Y192913D02*
X275590D01*
X183465Y201814D02*
Y207087D01*
X136974Y141414D02*
X150079Y154519D01*
Y162795D01*
X152407Y165188D02*
X155208Y167990D01*
X152407Y159562D02*
Y165188D01*
Y159562D02*
X154488Y157480D01*
X139907Y122190D02*
Y123479D01*
X166929Y128858D02*
X174961Y120827D01*
X166929Y128858D02*
Y132466D01*
X153816Y145579D02*
X166929Y132466D01*
X175801Y126378D02*
X181890D01*
X155197Y167990D02*
X155208D01*
X149640Y141403D02*
X149652D01*
X159913Y131142D01*
X160669D01*
X180315Y155118D02*
Y161417D01*
X261938Y240678D02*
X268819Y247559D01*
X306102Y229331D02*
X306299D01*
X259016Y249173D02*
X267905D01*
X268078Y249346D01*
X258661Y248819D02*
X259016Y249173D01*
X113572Y169083D02*
X113751Y169263D01*
X124564D02*
X128622Y165206D01*
X113751Y169263D02*
X124564D01*
X250661Y239637D02*
X251575Y240551D01*
X244094Y246850D02*
Y254724D01*
X178232Y199365D02*
Y210350D01*
X152424Y170773D02*
X183465Y201814D01*
X176378Y200295D02*
Y211024D01*
X151032Y172165D02*
X178232Y199365D01*
X149640Y173557D02*
X176378Y200295D01*
X246457Y257087D02*
X251575D01*
X244094Y254724D02*
X246457Y257087D01*
X257080Y240678D02*
X261938D01*
X306102Y190157D02*
X306299Y189961D01*
X262598Y129921D02*
X275590D01*
X148249Y174960D02*
X150677Y177389D01*
Y182467D01*
X148249Y174949D02*
Y174960D01*
X153199Y184990D02*
Y184990D01*
X150677Y182467D02*
X153199Y184990D01*
Y184990D02*
X161073Y192864D01*
X204724Y110374D02*
X226673D01*
X68484Y303150D02*
X82677D01*
X114273Y176772D02*
X117905Y173139D01*
X139907Y123479D02*
X142913Y126485D01*
X127559Y122835D02*
X127559D01*
X133214Y128490D01*
X134896D01*
X207000Y131951D02*
X207140Y131811D01*
X224016D01*
X39370Y129921D02*
X39492Y129799D01*
X127559Y132874D02*
Y137568D01*
X155208Y146971D02*
X175801Y126378D01*
X159384Y151147D02*
X171821Y138710D01*
X179544D01*
X149606Y203937D02*
X150000D01*
X140551Y180047D02*
Y195669D01*
X156031Y229689D02*
X161260Y234917D01*
X136974Y141403D02*
Y141414D01*
X110630Y201969D02*
Y224823D01*
X69291Y266161D02*
X110630Y224823D01*
X96688Y212830D02*
X105118Y204400D01*
Y199845D02*
Y204400D01*
Y199845D02*
X134190Y170773D01*
X135582Y142795D02*
Y142806D01*
X51575Y296457D02*
X51968D01*
X68524Y266929D02*
X69291Y266161D01*
X59055Y266929D02*
X68524D01*
X51575D02*
X59055D01*
X51968Y296457D02*
X53831Y294595D01*
Y294201D02*
Y294595D01*
Y294201D02*
X59055Y288976D01*
Y266929D02*
Y288976D01*
X68484Y303150D02*
X69291Y302343D01*
X68413Y303221D02*
X68484Y303150D01*
X51968D02*
X68484D01*
X51575Y303543D02*
X51968Y303150D01*
X311417Y200000D02*
Y235433D01*
Y162598D02*
Y200000D01*
X306299Y198228D02*
X309646D01*
X311417Y200000D01*
Y125197D02*
Y162598D01*
X306299Y160827D02*
X309646D01*
X311417Y162598D01*
Y87795D02*
Y125197D01*
X306299Y123425D02*
X309646D01*
X311417Y125197D01*
X303150Y115354D02*
X306102D01*
X212894Y107874D02*
X213779Y108760D01*
X161260Y234917D02*
Y238425D01*
X151417Y234303D02*
X156031Y229689D01*
X151417Y234303D02*
Y238425D01*
X161653Y245905D02*
Y254961D01*
X161260Y245512D02*
X161653Y245905D01*
X275984Y66929D02*
Y72441D01*
Y66929D02*
X277165Y65748D01*
X302362D01*
X311417Y74803D01*
Y87795D01*
X287006Y85433D02*
X296457D01*
X284250Y82677D02*
X287006Y85433D01*
X296457Y78347D02*
X305709D01*
X306299Y77756D01*
X259055Y83465D02*
Y105374D01*
X248130D02*
X259055D01*
X223150Y253150D02*
X224016Y254016D01*
X306102Y115354D02*
X306299Y115157D01*
X306102Y152756D02*
X306299Y152559D01*
X303150Y152756D02*
X306102D01*
X171117Y146313D02*
Y146600D01*
Y145813D02*
Y146313D01*
X306299Y86024D02*
X309646D01*
X311417Y87795D01*
X309449Y237402D02*
X311417Y235433D01*
X306299Y237598D02*
X306496Y237402D01*
X309449D01*
X224016Y131811D02*
X224331Y131496D01*
X240551D01*
X173708Y134039D02*
X186827D01*
X205492Y115374D02*
X226673D01*
X186827Y134039D02*
X205492Y115374D01*
X185827Y131890D02*
X194488Y123228D01*
X173073Y131890D02*
X185827D01*
X138307Y177792D02*
X139758Y176341D01*
X138307Y177792D02*
Y177803D01*
X140551Y180047D01*
X134777Y175766D02*
Y201312D01*
X141339Y207874D02*
Y219685D01*
X134777Y201312D02*
X141339Y207874D01*
X102756Y118321D02*
X131406Y146971D01*
X102756Y31693D02*
Y118321D01*
X235433Y90551D02*
Y103937D01*
X138307Y137169D02*
X139758Y138619D01*
X138307Y137158D02*
Y137169D01*
X133071Y131890D02*
X134896Y130065D01*
X133071Y134717D02*
X138366Y140011D01*
X133071Y131890D02*
Y134717D01*
X134896Y128490D02*
Y130065D01*
X138307Y137158D02*
X142913Y132552D01*
Y126485D02*
Y132552D01*
X173121Y154331D02*
X176128Y151324D01*
X169291Y154331D02*
X173121D01*
X167093Y152132D02*
X169291Y154331D01*
X174432Y142498D02*
X177975D01*
X171117Y145813D02*
X174432Y142498D01*
X168983Y148734D02*
X171117Y146600D01*
X164581Y148734D02*
X168983D01*
X117905Y173139D02*
X123473D01*
X71063Y212402D02*
X78991Y220329D01*
X63135Y204474D02*
X71063Y212402D01*
X283858Y73228D02*
Y82284D01*
X77490Y179134D02*
X85827D01*
X101575Y194882D01*
X70241Y186383D02*
X77490Y179134D01*
X101575Y194882D02*
X107298D01*
X132798Y169381D01*
X62742Y204474D02*
X63135D01*
X84001Y225340D02*
X84178D01*
X96688Y212830D01*
X57731Y198893D02*
Y199463D01*
Y198893D02*
X70241Y186383D01*
X129528Y178220D02*
Y201969D01*
X130709Y32283D02*
X130905Y32087D01*
X121260Y32283D02*
X130709D01*
X229173Y65748D02*
X239016D01*
X221299Y9449D02*
X229173Y17323D01*
X81102Y12598D02*
X84252Y9449D01*
X189803Y21654D02*
Y40157D01*
X182323Y14173D02*
X189803Y21654D01*
X209488Y18898D02*
Y40157D01*
X202401Y11811D02*
X209488Y18898D01*
X229173Y17323D02*
Y40157D01*
Y58661D01*
X81102Y12598D02*
Y31693D01*
X98425Y21260D02*
X105512Y14173D01*
X98425Y21260D02*
Y31693D01*
X94095D02*
X94488Y31299D01*
Y18110D02*
Y31299D01*
X89764Y14961D02*
X92913Y11811D01*
X85433Y31693D02*
X85433Y31693D01*
X85433Y18110D02*
Y31693D01*
X108661Y84252D02*
X118898D01*
X72047D02*
X81102D01*
X55118Y31102D02*
X55118Y31102D01*
X64173D01*
X194921Y65748D02*
X203976D01*
X170118Y40157D02*
Y58661D01*
X170118Y58661D02*
X170118Y58661D01*
X229173Y58661D02*
X229173Y58661D01*
X239016Y40157D02*
Y58661D01*
X239016Y58661D02*
X239016Y58661D01*
X199449D02*
X203976D01*
X194921D02*
X199449D01*
Y40354D02*
X199646Y40157D01*
X199449Y40354D02*
Y58661D01*
X108661Y77165D02*
X108661Y77165D01*
Y42913D02*
Y77165D01*
X107087Y31693D02*
Y41339D01*
X108661Y42913D01*
X82677Y93701D02*
X86614Y89764D01*
X84252Y77559D02*
X86614Y79921D01*
Y89764D01*
X81102Y77165D02*
X81496Y77559D01*
X84252D01*
X72047Y61811D02*
X76772Y57087D01*
X72047Y61811D02*
Y77087D01*
X81102Y31693D02*
Y77165D01*
X107087Y31693D02*
X107283Y31890D01*
X76772Y31693D02*
Y57087D01*
X127559Y137568D02*
X134179Y144187D01*
X161073Y192864D02*
Y192864D01*
X164961Y196751D01*
Y202756D01*
X116325Y183071D02*
X131406Y167990D01*
X110827Y183071D02*
X116325D01*
X118110Y211811D02*
Y221654D01*
X125197Y211811D02*
X135433D01*
X125197Y211811D02*
X125197Y211811D01*
X125354Y221811D02*
X135433D01*
X125197Y221654D02*
X125354Y221811D01*
X135433D02*
X135591Y221654D01*
X139370D01*
X141339Y219685D01*
X134777Y175766D02*
X136974Y173568D01*
Y173557D02*
Y173568D01*
X129528Y178220D02*
X135582Y172165D01*
X134917Y211295D02*
X135433Y211811D01*
X134917Y207358D02*
Y211295D01*
X129528Y201969D02*
X134917Y207358D01*
X127219Y163814D02*
X127230D01*
X51239Y284915D02*
X51575Y284579D01*
Y274016D02*
Y284579D01*
X134179Y144187D02*
X134190D01*
X156600Y148363D02*
X173073Y131890D01*
X157992Y149755D02*
X173708Y134039D01*
X123473Y173139D02*
X130014Y166597D01*
X283071Y74409D02*
Y74803D01*
X39370Y216535D02*
X50787D01*
X51181Y216929D01*
X39370Y224409D02*
X50787D01*
X51181Y224016D01*
X235433Y83465D02*
X249055D01*
X235433Y103937D02*
X241870Y110374D01*
X146856Y176341D02*
X148307Y177792D01*
Y177803D01*
X146856Y179253D02*
X148307Y177803D01*
X146856Y179253D02*
Y186720D01*
X149163Y189026D02*
Y189026D01*
X162168Y153931D02*
X163966Y152132D01*
X167093D01*
X160776Y152539D02*
X164581Y148734D01*
D15*
X239016Y65748D02*
D03*
Y58661D02*
D03*
X214567Y109843D02*
D03*
Y102756D02*
D03*
X51575Y274016D02*
D03*
Y266929D02*
D03*
X51575Y303543D02*
D03*
Y296457D02*
D03*
X161260Y245512D02*
D03*
Y238425D02*
D03*
X151417Y245512D02*
D03*
Y238425D02*
D03*
X108661Y84252D02*
D03*
Y77165D02*
D03*
X81102Y84252D02*
D03*
Y77165D02*
D03*
X72047Y84252D02*
D03*
Y77165D02*
D03*
X55118Y31102D02*
D03*
Y24016D02*
D03*
X130905Y32087D02*
D03*
Y25000D02*
D03*
X170118Y65748D02*
D03*
Y58661D02*
D03*
X203976Y58661D02*
D03*
Y65748D02*
D03*
X194921Y58661D02*
D03*
Y65748D02*
D03*
X229173Y65748D02*
D03*
Y58661D02*
D03*
X296457Y78347D02*
D03*
Y85433D02*
D03*
X235433Y90551D02*
D03*
Y83465D02*
D03*
X51181Y216929D02*
D03*
Y224016D02*
D03*
D16*
X91142Y163504D02*
D03*
X84055D02*
D03*
X91260Y154646D02*
D03*
X84173D02*
D03*
X258661Y257087D02*
D03*
X251575D02*
D03*
X258661Y240551D02*
D03*
X251575D02*
D03*
X251575Y248819D02*
D03*
X258661D02*
D03*
Y265354D02*
D03*
X251575D02*
D03*
X118110Y221654D02*
D03*
X125197D02*
D03*
X118110Y211811D02*
D03*
X125197D02*
D03*
X275984Y72441D02*
D03*
X283071D02*
D03*
D17*
X74016Y163504D02*
D03*
X66535D02*
D03*
X70276Y154842D02*
D03*
D18*
X69291Y302343D02*
D03*
D19*
Y266161D02*
D03*
D20*
X248130Y100374D02*
D03*
Y105374D02*
D03*
Y110374D02*
D03*
Y115374D02*
D03*
X226673Y100374D02*
D03*
Y105374D02*
D03*
Y110374D02*
D03*
Y115374D02*
D03*
D21*
X306299Y123425D02*
D03*
Y115157D02*
D03*
Y160827D02*
D03*
Y152559D02*
D03*
Y198228D02*
D03*
Y189961D02*
D03*
Y229331D02*
D03*
Y237598D02*
D03*
Y77756D02*
D03*
Y86024D02*
D03*
D22*
X224016Y254016D02*
D03*
Y131811D02*
D03*
D23*
X84001Y225340D02*
D03*
X78991Y220329D02*
D03*
X57731Y199463D02*
D03*
X62742Y204474D02*
D03*
X171117Y146313D02*
D03*
X176128Y151324D02*
D03*
X117072Y174553D02*
D03*
X112061Y169542D02*
D03*
D24*
X70241Y186383D02*
D03*
X96688Y212830D02*
D03*
D25*
X107087Y31693D02*
D03*
X102756D02*
D03*
X98425D02*
D03*
X94095D02*
D03*
X89764D02*
D03*
X85433D02*
D03*
X81102D02*
D03*
X76772D02*
D03*
D26*
X67421Y54134D02*
D03*
X121555D02*
D03*
X67421Y21457D02*
D03*
X121555D02*
D03*
D27*
X134896Y128490D02*
D03*
X139907Y123479D02*
D03*
X161561Y192376D02*
D03*
X156550Y197387D02*
D03*
X153687Y184502D02*
D03*
X148676Y189513D02*
D03*
D28*
X139758Y176341D02*
D03*
X138366Y174949D02*
D03*
X136974Y173557D02*
D03*
X135582Y172165D02*
D03*
X134190Y170773D02*
D03*
X132798Y169381D02*
D03*
X131406Y167990D02*
D03*
X130014Y166597D02*
D03*
X128622Y165206D02*
D03*
X127230Y163814D02*
D03*
X125838Y162422D02*
D03*
X124446Y161030D02*
D03*
X146856Y138619D02*
D03*
X148249Y140011D02*
D03*
X149640Y141403D02*
D03*
X151032Y142795D02*
D03*
X152424Y144187D02*
D03*
X153816Y145579D02*
D03*
X155208Y146971D02*
D03*
X156600Y148363D02*
D03*
X157992Y149755D02*
D03*
X159384Y151147D02*
D03*
X160776Y152539D02*
D03*
X162168Y153931D02*
D03*
D29*
X124446D02*
D03*
X125838Y152539D02*
D03*
X127230Y151147D02*
D03*
X128622Y149755D02*
D03*
X130014Y148363D02*
D03*
X131406Y146971D02*
D03*
X132798Y145579D02*
D03*
X134190Y144187D02*
D03*
X135582Y142795D02*
D03*
X136974Y141403D02*
D03*
X138366Y140011D02*
D03*
X139758Y138619D02*
D03*
X162168Y161030D02*
D03*
X160776Y162422D02*
D03*
X159384Y163814D02*
D03*
X157992Y165206D02*
D03*
X156600Y166597D02*
D03*
X155208Y167990D02*
D03*
X153816Y169381D02*
D03*
X152424Y170773D02*
D03*
X151032Y172165D02*
D03*
X149640Y173557D02*
D03*
X148249Y174949D02*
D03*
X146856Y176341D02*
D03*
D55*
X146753Y286968D02*
D03*
X283465Y82677D02*
D03*
Y90551D02*
D03*
Y98425D02*
D03*
Y106299D02*
D03*
Y114173D02*
D03*
Y122047D02*
D03*
Y129921D02*
D03*
Y137795D02*
D03*
Y145669D02*
D03*
Y153543D02*
D03*
Y161417D02*
D03*
Y169291D02*
D03*
Y177165D02*
D03*
Y185039D02*
D03*
Y192913D02*
D03*
Y200787D02*
D03*
Y208661D02*
D03*
Y216535D02*
D03*
Y224409D02*
D03*
Y232283D02*
D03*
X275590Y90551D02*
D03*
Y98425D02*
D03*
Y106299D02*
D03*
Y114173D02*
D03*
Y122047D02*
D03*
Y129921D02*
D03*
Y137795D02*
D03*
Y145669D02*
D03*
Y153543D02*
D03*
Y161417D02*
D03*
Y169291D02*
D03*
Y177165D02*
D03*
Y185039D02*
D03*
Y192913D02*
D03*
Y200787D02*
D03*
Y208661D02*
D03*
Y216535D02*
D03*
Y224409D02*
D03*
Y232283D02*
D03*
X31496D02*
D03*
Y224409D02*
D03*
Y216535D02*
D03*
Y208661D02*
D03*
Y200787D02*
D03*
Y192913D02*
D03*
Y185039D02*
D03*
Y177165D02*
D03*
Y169291D02*
D03*
Y161417D02*
D03*
Y153543D02*
D03*
Y145669D02*
D03*
Y137795D02*
D03*
Y129921D02*
D03*
Y122047D02*
D03*
Y114173D02*
D03*
Y106299D02*
D03*
Y98425D02*
D03*
Y90551D02*
D03*
Y82677D02*
D03*
X39370Y224409D02*
D03*
Y216535D02*
D03*
Y208661D02*
D03*
Y200787D02*
D03*
Y192913D02*
D03*
Y185039D02*
D03*
Y177165D02*
D03*
Y169291D02*
D03*
Y161417D02*
D03*
Y153543D02*
D03*
Y145669D02*
D03*
Y137795D02*
D03*
Y129921D02*
D03*
Y122047D02*
D03*
Y114173D02*
D03*
Y106299D02*
D03*
Y98425D02*
D03*
Y90551D02*
D03*
Y82677D02*
D03*
X208510Y286968D02*
D03*
X198510D02*
D03*
X188510D02*
D03*
X178510D02*
D03*
X241410D02*
D03*
X161653Y254961D02*
D03*
X135433Y211811D02*
D03*
X249055Y83465D02*
D03*
D56*
X156753Y286968D02*
D03*
X218510D02*
D03*
X251410D02*
D03*
X151654Y254961D02*
D03*
X259055Y83465D02*
D03*
D57*
X78780Y131929D02*
D03*
Y112244D02*
D03*
D58*
X119134Y279134D02*
D03*
X239016Y40157D02*
D03*
X229173D02*
D03*
X219331D02*
D03*
X209488D02*
D03*
X199646D02*
D03*
X189803D02*
D03*
X179961D02*
D03*
D59*
X109134Y279134D02*
D03*
X170118Y40157D02*
D03*
D60*
X275590Y82677D02*
D03*
X39370Y232283D02*
D03*
X135433Y221811D02*
D03*
D61*
X23622Y291339D02*
D03*
Y23622D02*
D03*
X291339D02*
D03*
Y291339D02*
D03*
D62*
X103307Y248504D02*
D03*
X204842Y102441D02*
D03*
X184567Y262756D02*
D03*
X98622Y154567D02*
D03*
X88465Y128465D02*
D03*
X58425Y163425D02*
D03*
X210000Y236653D02*
D03*
X53622Y171693D02*
D03*
X118110Y232441D02*
D03*
X178425Y65787D02*
D03*
X183740Y90709D02*
D03*
X212323Y65669D02*
D03*
X253701Y124843D02*
D03*
X250039Y62594D02*
D03*
X258780Y119370D02*
D03*
X248740Y177205D02*
D03*
X253031Y185039D02*
D03*
X150709Y51803D02*
D03*
Y59677D02*
D03*
X56693Y43307D02*
D03*
Y59205D02*
D03*
X150709Y43929D02*
D03*
X130709Y58661D02*
D03*
X53858Y82717D02*
D03*
X61890Y99291D02*
D03*
X52244Y90630D02*
D03*
X50039Y113858D02*
D03*
X72205Y91969D02*
D03*
X130709Y42520D02*
D03*
X121181Y101142D02*
D03*
X103307Y145669D02*
D03*
X108228Y141299D02*
D03*
X105039Y163701D02*
D03*
X110158Y159095D02*
D03*
X103110Y175197D02*
D03*
X102913Y182992D02*
D03*
X145787Y116654D02*
D03*
X150709Y121693D02*
D03*
X155984Y126496D02*
D03*
X195984Y189055D02*
D03*
X205945Y214921D02*
D03*
X201929Y208858D02*
D03*
X183465Y207087D02*
D03*
X190748Y184567D02*
D03*
X133858Y155354D02*
D03*
X142283Y154213D02*
D03*
X141772Y160906D02*
D03*
X147441Y165551D02*
D03*
X224095Y208701D02*
D03*
X154488Y157480D02*
D03*
X174961Y120827D02*
D03*
X181890Y126378D02*
D03*
X218858Y218898D02*
D03*
X214055Y223268D02*
D03*
X160669Y131142D02*
D03*
X180315Y161417D02*
D03*
X94095Y93701D02*
D03*
X156031Y229689D02*
D03*
X127559Y122835D02*
D03*
X204724Y109843D02*
D03*
X207000Y131951D02*
D03*
X127559Y132874D02*
D03*
X140551Y195669D02*
D03*
X149606Y203937D02*
D03*
X110630Y201969D02*
D03*
X82677Y303150D02*
D03*
X240551Y131496D02*
D03*
X75197Y21260D02*
D03*
X71063Y212402D02*
D03*
X121260Y32283D02*
D03*
X118898Y84252D02*
D03*
X94488Y18110D02*
D03*
X85433D02*
D03*
X64173Y31102D02*
D03*
X112992Y21260D02*
D03*
X82677Y93701D02*
D03*
X164961Y202756D02*
D03*
X110827Y183071D02*
D03*
X177975Y142498D02*
D03*
X51239Y284915D02*
D03*
M02*
